{
    "filename": "kedl.xml",
    "hidden": "True",
    "id": "com.nexstreaming.kmsdk.jiyeon.nexeditor.effect.myownvlog.9v16.fx_08",
    "label": {
        "en": "com.nexstreaming.kmsdk.jiyeon.nexeditor.effect.myownvlog.9v16.fx_08"
    },
    "mergePaths": [
        "common"
    ],
    "type": "nex.kedl"
}