{
    "filename": "kedl.xml",
    "hidden": "True",
    "id": "com.nexstreaming.kmsdk.design.nexeditor.transition.show_me_your_memory.9v16.tran_5",
    "label": {
        "en": "com.nexstreaming.kmsdk.design.nexeditor.transition.show_me_your_memory.9v16.tran_5"
    },
    "mergePaths": [
        "common"
    ],
    "type": "nex.kedl"
}