{
    "filename": "intro_video_16.mp4",
    "hidden": "True",
    "id": "com.nexstreaming.kmsdk.design.nexeditor.template.midautumnfestival.background.intro_video_16",
    "label": {
        "en": "intro_video_16"
    },
    "type": "nex.media"
}