{
    "filename": "kedl.xml",
    "hidden": "True",
    "id": "com.nexstreaming.kmsdk.brix.nexeditor.effect.Travle.1v1.clip3",
    "label": {
        "en": "com.nexstreaming.kmsdk.brix.nexeditor.effect.Travle.1v1.clip3"
    },
    "mergePaths": [
        "common"
    ],
    "type": "nex.kedl"
}