{
    "filename": "kedl.xml",
    "hidden": "True",
    "id": "com.nexstreaming.kmsdk.design.nexeditor.transition.funkymove.9v16.tran_1",
    "label": {
        "en": "com.nexstreaming.kmsdk.design.nexeditor.transition.funkymove.9v16.tran_1"
    },
    "mergePaths": [
        "common"
    ],
    "type": "nex.kedl"
}