{
    "filename": "intro_video_9v16.mp4",
    "hidden": "True",
    "id": "com.nexstreaming.kmsdk.brix.nexeditor.template.travel.background.intro_video_9v16",
    "label": {
        "en": "intro_video_9v16"
    },
    "type": "nex.media"
}