{
	"overlay_name" : "Fade",
	"overlay_version" : "1.0",
	"overlay_desc" : "Version : D004 - Text Effect Created by Design Team, NEXSTREAMING, Overlay Title 16v9",

	"overlay_priority" : "start",

	"overlay" : 
	[
		{
			"type" : "title",
			"text" : "TITLE",
			"group" : "1_1",
			"text_desc" : "Please Input Text",
			"text_max_len" : "24",
			"position" : "90,320,630,470",
			"start_time" : "0",
			"duration" : "5000",
			"font" : "system.droidsansb",
			"font_size" : "45",
			"text_color" : "#FFFFFFFF",
			"shadow_visible" : "0",
			"shadow_color" : "#FFDDCCDD",
			"glow_visible" : "0",
			"glow_color" : "#FF556655",
			"outline_visible" : "0",
			"outline_color" : "#FF101010",
			"align" : "CENTER|BOTTOM",
			"adjust_pos_non_sub":"0, 75",

			"animation" : 
			[
				{
					"type" : "alpha",
					"values" : 
					[
						{
							"motion_type" : "type",
							"start_time" : "0",
							"end_time" : "750",
							"start" : "0",
							"end" : "0"
						},
						{
							"motion_type" : "type",
							"start_time" : "750",
							"end_time" : "1750",
							"start" : "0",
							"end" : "1"
						},
						{
							"motion_type" : "type",
							"start_time" : "1750",
							"end_time" : "3750",
							"start" : "1",
							"end" : "1"
						},
						{
							"motion_type" : "type",
							"start_time" : "3750",
							"end_time" : "4500",
							"start" : "1",
							"end" : "0"
						}
					]
				}
			]
		},
		{
			"type" : "title",
			"text" : "SubTitle",
			"group" : "1_2",
			"text_desc" : "Please Input Text",
			"text_max_len" : "17",
			"position" : "90,470,630,540",
			"start_time" : "0",
			"duration" : "5000",
			"font" : "system.droidsansb",
			"font_size" : "35",
			"text_color" : "#FFFFFFFF",
			"shadow_visible" : "0",
			"shadow_color" : "#FFDDCCDD",
			"glow_visible" : "0",
			"glow_color" : "#FF556655",
			"outline_visible" : "0",
			"outline_color" : "#FF101010",
			"align" : "CENTER|TOP",

			"animation" : 
			[
				{
					"type" : "alpha",
					"values" : 
					[
						{
							"motion_type" : "type",
							"start_time" : "0",
							"end_time" : "750",
							"start" : "0",
							"end" : "0"
						},
						{
							"motion_type" : "type",
							"start_time" : "750",
							"end_time" : "1750",
							"start" : "0",
							"end" : "1"
						},
						{
							"motion_type" : "type",
							"start_time" : "1750",
							"end_time" : "3750",
							"start" : "1",
							"end" : "1"
						},
						{
							"motion_type" : "type",
							"start_time" : "3750",
							"end_time" : "4500",
							"start" : "1",
							"end" : "0"
						}
					]
				}
			]
		},
		{
			"type" : "title",
			"text" : "TITLE",
			"group" : "2_1",
			"text_desc" : "Please Input Text",
			"text_max_len" : "24",
			"position" : "90,320,630,470",
			"start_time" : "-1",
			"duration" : "5000",
			"font" : "system.droidsansb",
			"font_size" : "45",
			"text_color" : "#FFFFFFFF",
			"shadow_visible" : "0",
			"shadow_color" : "#FFDDCCDD",
			"glow_visible" : "0",
			"glow_color" : "#FF556655",
			"outline_visible" : "0",
			"outline_color" : "#FF101010",
			"align" : "CENTER|BOTTOM",
			"adjust_pos_non_sub":"0, 75",

			"animation" : 
			[
				{
					"type" : "alpha",
					"values" : 
					[
						{
							"motion_type" : "type",
							"start_time" : "0",
							"end_time" : "750",
							"start" : "0",
							"end" : "0"
						},
						{
							"motion_type" : "type",
							"start_time" : "750",
							"end_time" : "1750",
							"start" : "0",
							"end" : "1"
						},
						{
							"motion_type" : "type",
							"start_time" : "1750",
							"end_time" : "3750",
							"start" : "1",
							"end" : "1"
						},
						{
							"motion_type" : "type",
							"start_time" : "3750",
							"end_time" : "4500",
							"start" : "1",
							"end" : "0"
						}
					]
				}
			]
		},
		{
			"type" : "title",
			"text" : "SubTitle",
			"group" : "2_2",
			"text_desc" : "Please Input Text",
			"text_max_len" : "17",
			"position" : "90,470,630,540",
			"start_time" : "-1",
			"duration" : "5000",
			"font" : "system.droidsansb",
			"font_size" : "35",
			"text_color" : "#FFFFFFFF",
			"shadow_visible" : "0",
			"shadow_color" : "#FFDDCCDD",
			"glow_visible" : "0",
			"glow_color" : "#FF556655",
			"outline_visible" : "0",
			"outline_color" : "#FF101010",
			"align" : "CENTER|TOP",

			"animation" : 
			[
				{
					"type" : "alpha",
					"values" : 
					[
						{
							"motion_type" : "type",
							"start_time" : "0",
							"end_time" : "750",
							"start" : "0",
							"end" : "0"
						},
						{
							"motion_type" : "type",
							"start_time" : "750",
							"end_time" : "1750",
							"start" : "0",
							"end" : "1"
						},
						{
							"motion_type" : "type",
							"start_time" : "1750",
							"end_time" : "3750",
							"start" : "1",
							"end" : "1"
						},
						{
							"motion_type" : "type",
							"start_time" : "3750",
							"end_time" : "4500",
							"start" : "1",
							"end" : "0"
						}
					]
				}
			]
		}
	]
}