{
    "filename": "kedl.xml",
    "hidden": "True",
    "id": "com.nexstreaming.kmsdk.jiyeon.nexeditor.effect.thewhiteview.16v9.op_01",
    "label": {
        "en": "com.nexstreaming.kmsdk.jiyeon.nexeditor.effect.thewhiteview.16v9.op_01"
    },
    "mergePaths": [
        "common"
    ],
    "type": "nex.kedl"
}