{
    "SDKLevel": "3",
    "assetName": {
        "en": "Paper",
        "zh": "神秘纸团"
    },
    "format": "com.kinemaster.assetpackage",
    "itemRoots": [
        "audio/paper1",
        "effect/3dpaper_live.16v9.paper",
        "filter/blue",
        "filter/C12",
        "filter/england",
        "template/2.0_16v9_3dpaper_live"
    ],
    "minVersionCode": "3",
    "packageContentVersion": 1,
    "targetVersionCode": "3"
}