{
    "filename": "kedl.xml",
    "hidden": "True",
    "id": "com.nexstreaming.kmsdk.design.nexeditor.transition.midautumnfestival.16v9.intro_transition_0",
    "label": {
        "en": "com.nexstreaming.kmsdk.design.nexeditor.transition.midautumnfestival.16v9.intro_transition_0"
    },
    "mergePaths": [
        "common"
    ],
    "type": "nex.kedl"
}