{
    "filename": "kedl.xml",
    "hidden": "True",
    "id": "com.nexstreaming.kmsdk.design.nexeditor.effect.midautumnfestival.16v9.out_effect_a",
    "label": {
        "en": "com.nexstreaming.kmsdk.design.nexeditor.effect.midautumnfestival.16v9.out_effect_a"
    },
    "mergePaths": [
        "common"
    ],
    "type": "nex.kedl"
}