{
    "filename": "v.2.0_1v2_thewhiteview.json",
    "hidden": "False",
    "icon": "thumbnail.png",
    "id": "com.nexstreaming.kmsdk.jiyeon.nexeditor.template.thewhiteview.v.2.0_1v2_thewhiteview",
    "label": {
        "en": "v.2.0_1v2_thewhiteview"
    },
    "type": "nex.template"
}