{
    "filename": "kedl.xml",
    "hidden": "True",
    "id": "com.nexstreaming.kmsdk.design.nexeditor.effect.show_me_your_memory.1v1.body_1",
    "label": {
        "en": "com.nexstreaming.kmsdk.design.nexeditor.effect.show_me_your_memory.1v1.body_1"
    },
    "mergePaths": [
        "common"
    ],
    "type": "nex.kedl"
}