{
    "filename": "kedl.xml",
    "hidden": "True",
    "id": "com.nexstreaming.kmsdk.design.nexeditor.effect.epicopener.16v9.outro2",
    "label": {
        "en": "com.nexstreaming.kmsdk.design.nexeditor.effect.epicopener.16v9.outro2"
    },
    "mergePaths": [
        "16v9"
    ],
    "type": "nex.kedl"
}