{
	"overlay_name" : "ZoomIn",
	"overlay_version" : "1.0",
	"overlay_desc" : "Version : D005 - Text Effect Created by Design Team, NEXSTREAMING, Overlay Title 1v1",

	"overlay_priority" : "start",

	"overlay" : 
	[
		{
			"type" : "title",
			"text" : "TITLE",
			"group" : "1_1",
			"text_desc" : "Please Input Text",
			"text_max_len" : "11",
			"position" : "90,270,630,360",
			"start_time" : "0",
			"duration" : "5000",
			"font" : "system.droidsansb",
			"font_size" : "40",
			"text_color" : "#FFFFFFFF",
			"shadow_visible" : "0",
			"shadow_color" : "#FFDDCCDD",
			"glow_visible" : "0",
			"glow_color" : "#FF556655",
			"outline_visible" : "0",
			"outline_color" : "#FF101010",
			"align" : "CENTER|MIDDLE",
			"adjust_pos_non_sub":"0, 45",
			"adjust_align_non_sub":"CENTER|MIDDLE",

			"animation" : 
			[
				{
					"type" : "move",
					"values" : 
					[
						{
							"motion_type" : "type",
							"start_time" : "0",
							"end_time" : "935",
							"start_x" : "0",
							"end_x" : "0",
							"start_y" : "0",
							"end_y" : "0"
						},
						{
							"motion_type" : "type",
							"start_time" : "935",
							"end_time" : "4000",
							"start_x" : "0",
							"end_x" : "0",
							"start_y" : "0",
							"end_y" : "-5"
						},
						{
							"motion_type" : "type",
							"start_time" : "4000",
							"end_time" : "4740",
							"start_x" : "0",
							"end_x" : "0",
							"start_y" : "-5",
							"end_y" : "-80"
						}
					]
				},
				{
					"type" : "alpha",
					"values" : 
					[
						{
							"motion_type" : "type",
							"start_time" : "0",
							"end_time" : "250",
							"start" : "0",
							"end" : "0"
						},
						{
							"motion_type" : "type",
							"start_time" : "250",
							"end_time" : "750",
							"start" : "0",
							"end" : "1"
						},
						{
							"motion_type" : "type",
							"start_time" : "750",
							"end_time" : "4000",
							"start" : "1",
							"end" : "1"
						},
						{
							"motion_type" : "type",
							"start_time" : "4000",
							"end_time" : "4750",
							"start" : "1",
							"end" : "0"
						}
					]
				},
				{
					"type" : "scale",
					"values" : 
					[
						{
							"motion_type" : "type",
							"start_time" : "0",
							"end_time" : "260",
							"start_x" : "0",
							"end_x" : "0",
							"start_y" : "0",
							"end_y" : "0"							
						},
						{
							"motion_type" : "type",
							"start_time" : "260",
							"end_time" : "765",
							"start_x" : "0",
							"end_x" : "1",
							"start_y" : "0",
							"end_y" : "1"	
						},
						{
							"motion_type" : "type",
							"start_time" : "765",
							"end_time" : "3995",
							"start_x" : "1",
							"end_x" : "1.2",
							"start_y" : "1",
							"end_y" : "1.2"
						},	
						{
							"motion_type" : "type",
							"start_time" : "3995",
							"end_time" : "4740",
							"start_x" : "1.2",
							"end_x" : "3",
							"start_y" : "1.2",
							"end_y" : "3"
						}
					]
				}
			],
			"adjust_animation_non_sub" : 
			[
				{
					"type" : "alpha",
					"values" : 
					[
						{
							"motion_type" : "type",
							"start_time" : "0",
							"end_time" : "250",
							"start" : "0",
							"end" : "0"
						},
						{
							"motion_type" : "type",
							"start_time" : "250",
							"end_time" : "750",
							"start" : "0",
							"end" : "1"
						},
						{
							"motion_type" : "type",
							"start_time" : "750",
							"end_time" : "4000",
							"start" : "1",
							"end" : "1"
						},
						{
							"motion_type" : "type",
							"start_time" : "4000",
							"end_time" : "4750",
							"start" : "1",
							"end" : "0"
						}
					]
				},
				{
					"type" : "scale",
					"values" : 
					[
						{
							"motion_type" : "type",
							"start_time" : "0",
							"end_time" : "260",
							"start_x" : "0",
							"end_x" : "0",
							"start_y" : "0",
							"end_y" : "0"							
						},
						{
							"motion_type" : "type",
							"start_time" : "260",
							"end_time" : "765",
							"start_x" : "0",
							"end_x" : "1",
							"start_y" : "0",
							"end_y" : "1"	
						},
						{
							"motion_type" : "type",
							"start_time" : "765",
							"end_time" : "3995",
							"start_x" : "1",
							"end_x" : "1.2",
							"start_y" : "1",
							"end_y" : "1.2"
						},	
						{
							"motion_type" : "type",
							"start_time" : "3995",
							"end_time" : "4740",
							"start_x" : "1.2",
							"end_x" : "3",
							"start_y" : "1.2",
							"end_y" : "3"
						}
					]
				}
			]
		},
		{
			"type" : "title",
			"text" : "SubTitle",
			"group" : "1_2",
			"text_desc" : "Please Input Text",
			"text_max_len" : "14",
			"position" : "90,360,630,450",
			"start_time" : "0",
			"duration" : "5000",
			"font" : "system.droidsansb",
			"font_size" : "30",
			"text_color" : "#FFFFFFFF",
			"shadow_visible" : "0",
			"shadow_color" : "#FFDDCCDD",
			"glow_visible" : "0",
			"glow_color" : "#FF556655",
			"outline_visible" : "0",
			"outline_color" : "#FF101010",
			"align" : "CENTER|MIDDLE",

			"animation" : 
			[
				{
					"type" : "move",
					"values" : 
					[
						{
							"motion_type" : "type",
							"start_time" : "0",
							"end_time" : "935",
							"start_x" : "0",
							"end_x" : "0",
							"start_y" : "0",
							"end_y" : "0"
						},
						{
							"motion_type" : "type",
							"start_time" : "935",
							"end_time" : "4000",
							"start_x" : "0",
							"end_x" : "0",
							"start_y" : "0",
							"end_y" : "22"
						},
						{
							"motion_type" : "type",
							"start_time" : "4000",
							"end_time" : "4740",
							"start_x" : "0",
							"end_x" : "0",
							"start_y" : "22",
							"end_y" : "102"
						}
					]
				},			
				{
					"type" : "alpha",
					"values" : 
					[
						{
							"motion_type" : "type",
							"start_time" : "0",
							"end_time" : "250",
							"start" : "0",
							"end" : "0"
						},
						{
							"motion_type" : "type",
							"start_time" : "250",
							"end_time" : "750",
							"start" : "0",
							"end" : "1"
						},
						{
							"motion_type" : "type",
							"start_time" : "750",
							"end_time" : "4000",
							"start" : "1",
							"end" : "1"
						},
						{
							"motion_type" : "type",
							"start_time" : "4000",
							"end_time" : "4750",
							"start" : "1",
							"end" : "0"
						}
					]
				},
				{
					"type" : "scale",
					"values" : 
					[
						{
							"motion_type" : "type",
							"start_time" : "0",
							"end_time" : "260",
							"start_x" : "0",
							"end_x" : "0",
							"start_y" : "0",
							"end_y" : "0"							
						},
						{
							"motion_type" : "type",
							"start_time" : "260",
							"end_time" : "765",
							"start_x" : "0",
							"end_x" : "1",
							"start_y" : "0",
							"end_y" : "1"	
						},
						{
							"motion_type" : "type",
							"start_time" : "765",
							"end_time" : "3995",
							"start_x" : "1",
							"end_x" : "1.2",
							"start_y" : "1",
							"end_y" : "1.2"
						},	
						{
							"motion_type" : "type",
							"start_time" : "3995",
							"end_time" : "4740",
							"start_x" : "1.2",
							"end_x" : "3",
							"start_y" : "1.2",
							"end_y" : "3"
						}
					]
				}
			]
		},
		{
			"type" : "title",
			"text" : "TITLE",
			"group" : "2_1",
			"text_desc" : "Please Input Text",
			"text_max_len" : "24",
			"position" : "90,180,630,360",
			"start_time" : "-1",
			"duration" : "5000",
			"font" : "system.droidsansb",
			"font_size" : "40",
			"text_color" : "#FFFFFFFF",
			"shadow_visible" : "0",
			"shadow_color" : "#FFDDCCDD",
			"glow_visible" : "0",
			"glow_color" : "#FF556655",
			"outline_visible" : "0",
			"outline_color" : "#FF101010",
			"align" : "CENTER|BOTTOM",
			"adjust_pos_non_sub":"0, 90",
			"adjust_align_non_sub":"CENTER|MIDDLE",

			"animation" : 
			[
				{
					"type" : "alpha",
					"values" : 
					[
						{
							"motion_type" : "type",
							"start_time" : "0",
							"end_time" : "750",
							"start" : "0",
							"end" : "0"
						},
						{
							"motion_type" : "type",
							"start_time" : "750",
							"end_time" : "1750",
							"start" : "0",
							"end" : "1"
						},
						{
							"motion_type" : "type",
							"start_time" : "1750",
							"end_time" : "3750",
							"start" : "1",
							"end" : "1"
						},
						{
							"motion_type" : "type",
							"start_time" : "3750",
							"end_time" : "4500",
							"start" : "1",
							"end" : "0"
						}
					]
				}
			]
		},

		{
			"type" : "title",
			"text" : "SubTitle",
			"group" : "2_2",
			"text_desc" : "Please Input Text",
			"text_max_len" : "17",
			"position" : "90,360,630,540",
			"start_time" : "-1",
			"duration" : "5000",
			"font" : "system.droidsansb",
			"font_size" : "30",
			"text_color" : "#FFFFFFFF",
			"shadow_visible" : "0",
			"shadow_color" : "#FFDDCCDD",
			"glow_visible" : "0",
			"glow_color" : "#FF556655",
			"outline_visible" : "0",
			"outline_color" : "#FF101010",
			"align" : "CENTER|TOP",

			"animation" : 
			[
				{
					"type" : "alpha",
					"values" : 
					[
						{
							"motion_type" : "type",
							"start_time" : "0",
							"end_time" : "750",
							"start" : "0",
							"end" : "0"
						},
						{
							"motion_type" : "type",
							"start_time" : "750",
							"end_time" : "1750",
							"start" : "0",
							"end" : "1"
						},
						{
							"motion_type" : "type",
							"start_time" : "1750",
							"end_time" : "3750",
							"start" : "1",
							"end" : "1"
						},
						{
							"motion_type" : "type",
							"start_time" : "3750",
							"end_time" : "4500",
							"start" : "1",
							"end" : "0"
						}
					]
				}
			]
		}
	]
}