{
    "filename": "lut_lifestyle_chill.png",
    "hidden": "True",
    "id": "com.nexstreaming.kmsdk.maria.nexeditor.template.lifestyle.lut.lut_lifestyle_chill",
    "label": {
        "en": "lut_lifestyle_chill"
    },
    "type": "nex.lut"
}