{
    "id": "com.nexstreaming.kmsdk.eli.nexeditor.collage.dynamicsport.9v16_09",
    "label": {
        "en": "kedl"
    },
    "mergePaths": [
        "common"
    ],
    "filename": "kedl.xml",
    "type": "nex.kedl",
    "hidden": "True"
}