{
    "draw_infos": [
        {
            "position": "0.06667,0.10139,0.43889,0.10139,0.43889,0.33333,0.06667,0.33333,0.06667,0.10139",
            "source_type": "user",
            "end": "1",
            "source_default": "none",
            "draw_id": "draw_0",
            "audio_res": "none",
            "audio_res_pos": "0",
            "start": "0",
            "lut": "none"
        },
        {
            "position": "0.47917,0.10000,0.73472,0.10000,0.73472,0.25972,0.47917,0.25972,0.47917,0.10000",
            "source_type": "user",
            "end": "1",
            "source_default": "none",
            "draw_id": "draw_1",
            "audio_res": "none",
            "audio_res_pos": "0",
            "start": "0",
            "lut": "none"
        },
        {
            "position": "0.76111,0.10000,0.92778,0.10000,0.92778,0.26111,0.76111,0.26111,0.76111,0.10000",
            "source_type": "user",
            "end": "1",
            "source_default": "none",
            "draw_id": "draw_2",
            "audio_res": "none",
            "audio_res_pos": "0",
            "start": "0",
            "lut": "none"
        },
        {
            "position": "0.47917,0.30278,0.92917,0.30278,0.92917,0.55278,0.47917,0.55278,0.47917,0.30278",
            "source_type": "user",
            "end": "1",
            "source_default": "none",
            "draw_id": "draw_3",
            "audio_res": "none",
            "audio_res_pos": "0",
            "start": "0",
            "lut": "none"
        },
        {
            "position": "0.07083,0.37639,0.27917,0.37639,0.27917,0.50833,0.07083,0.50833,0.07083,0.37639",
            "source_type": "user",
            "end": "1",
            "source_default": "none",
            "draw_id": "draw_4",
            "audio_res": "none",
            "audio_res_pos": "0",
            "start": "0",
            "lut": "none"
        },
        {
            "position": "0.30278,0.37500,0.43750,0.37500,0.43750,0.50694,0.30278,0.50694,0.30278,0.37500",
            "source_type": "user",
            "end": "1",
            "source_default": "none",
            "draw_id": "draw_5",
            "audio_res": "none",
            "audio_res_pos": "0",
            "start": "0",
            "lut": "none"
        },
        {
            "position": "0.48056,0.59444,0.68889,0.59444,0.68889,0.80417,0.48056,0.80417,0.48056,0.59444",
            "source_type": "user",
            "end": "1",
            "source_default": "none",
            "draw_id": "draw_6",
            "audio_res": "none",
            "audio_res_pos": "0",
            "start": "0",
            "lut": "none"
        },
        {
            "position": "0.72083,0.59583,0.92778,0.59583,0.92778,0.80417,0.72083,0.80417,0.72083,0.59583",
            "source_type": "user",
            "end": "1",
            "source_default": "none",
            "draw_id": "draw_7",
            "audio_res": "none",
            "audio_res_pos": "0",
            "start": "0",
            "lut": "none"
        },
        {
            "position": "0.07083,0.54861,0.43750,0.54861,0.43750,0.74306,0.07083,0.74306,0.07083,0.54861",
            "source_type": "user",
            "end": "1",
            "source_default": "none",
            "draw_id": "draw_8",
            "audio_res": "none",
            "audio_res_pos": "0",
            "start": "0",
            "lut": "none"
        }
       
    ],
    "collage_duration": "8000",
    "audio_res_pos": "0",
    "collage_source_count": "9",
    "collage_dimensions": "none",
    "collage_name": "collage",
    "collage_edit_time": "1",
    "collage_desc": "Collage created by Design Team, NEXSTREAMING",
    "audio_res": "none",
    "collage_bgm_volume": "0.5",
    "collage_project_vol_fade_in_time": "100",
    "collage_type": "dynamic",
    "collage_bgm": "com.nexstreaming.kmsdk.dori.nexeditor.collage.travel note.audio.0084_let's picnic",
    "collage_ratio": "1v1",
    "title_infos": [
        {
            "position": "0.10416667,0.85138889,0.41666667,0.85138889,0.41666667,0.90972222,0.10416667,0.90972222,0.10416667,0.85138889",
            "end": "1",
            "title_default": {
                "en": "Travel in Bali"
            },
            "draw_id": "none",
            "title_type": "user",
            "start": "0",
            "title_id": "text1_uf"
        }
    ],
    "collage_project_vol_fade_out_time": "300",
    "collage_version": "1.0.0",
    "effect": "com.nexstreaming.kmsdk.dori.nexeditor.collage.travel_note.9"
}