{
	"overlay_name" : "Awards Ceremony",
	"overlay_version" : "1.0",
	"overlay_desc" : "Version : D005 - Text Effect Created by Design Team, NEXSTREAMING",

	"overlay_priority" : "start",

	"overlay" : 
	[
		{
			"type" : "title",
			"text" : "TITLE",
			"group" : "1_1",
			"text_desc" : "Please Input Text",
			"text_max_len" : "7",
			"position" : "440,200,840,360",
			"start_time" : "0",
			"duration" : "5000",
			"font" : "system.droidsansb",
			"font_size" : "58",
			"text_color" : "#FFFFFFFF",
			"shadow_visible" : "0",
			"shadow_color" : "#FFDDCCDD",
			"glow_visible" : "0",
			"glow_color" : "#FF556655",
			"outline_visible" : "0",
			"outline_color" : "#FF101010",
			"align" : "CENTER|BOTTOM",
			"adjust_pos_non_sub":"0, 40",
			"adjust_align_non_sub":"CENTER|BOTTOM",

			"animation" : 
			[
				{
					"type" : "alpha",
					"values" : 
					[
						{
							"motion_type" : "type",
							"start_time" : "0",
							"end_time" : "750",
							"start" : "0",
							"end" : "0"
						},
						{
							"motion_type" : "type",
							"start_time" : "750",
							"end_time" : "1750",
							"start" : "0",
							"end" : "1"
						},
						{
							"motion_type" : "type",
							"start_time" : "1750",
							"end_time" : "3750",
							"start" : "1",
							"end" : "1"
						},
						{
							"motion_type" : "type",
							"start_time" : "3750",
							"end_time" : "4500",
							"start" : "1",
							"end" : "0"
						}
					]
				}
			]
		},

		{
			"type" : "title",
			"text" : "SubTitle",
			"group" : "1_2",
			"text_desc" : "Please Input Text",
			"text_max_len" : "10",
			"position" : "440,360,840,415",
			"start_time" : "0",
			"duration" : "5000",
			"font" : "system.droidsansb",
			"font_size" : "40",
			"text_color" : "#FFFFFFFF",
			"shadow_visible" : "0",
			"shadow_color" : "#FFDDCCDD",
			"glow_visible" : "0",
			"glow_color" : "#FF556655",
			"outline_visible" : "0",
			"outline_color" : "#FF101010",
			"align" : "CENTER|TOP",

			"animation" : 
			[
				{
					"type" : "alpha",
					"values" : 
					[
						{
							"motion_type" : "type",
							"start_time" : "0",
							"end_time" : "750",
							"start" : "0",
							"end" : "0"
						},
						{
							"motion_type" : "type",
							"start_time" : "750",
							"end_time" : "1750",
							"start" : "0",
							"end" : "1"
						},
						{
							"motion_type" : "type",
							"start_time" : "1750",
							"end_time" : "3750",
							"start" : "1",
							"end" : "1"
						},
						{
							"motion_type" : "type",
							"start_time" : "3750",
							"end_time" : "4500",
							"start" : "1",
							"end" : "0"
						}
					]
				}
			]
		},
		{
			"type" : "image",
			"position" : "376,180,1126,540",
			"start_time" : "0",
			"duration" : "5000",
			"image_res" : "com.nexstreaming.kmsdk.design.nexeditor.res.leaf_r",
			"adjust_pos_non_sub":"0, 30",

			"animation" : 
			[
				{
					"type" : "move",
					"values" : 
					[
						{
							"motion_type" : "type",
							"start_time" : "0",
							"end_time" : "2215",
							"start_x" : "0",
							"end_x" : "0",
							"start_y" : "0",
							"end_y" : "0"
						},
						{
							"motion_type" : "type",
							"start_time" : "2215",
							"end_time" : "3565",
							"start_x" : "0",
							"end_x" : "145",
							"start_y" : "0",
							"end_y" : "0"
						}
					]
				},
				{
					"type" : "alpha",
					"values" : 
					[
						{
							"motion_type" : "type",
							"start_time" : "0",
							"end_time" : "2260",
							"start" : "0",
							"end" : "0"
						},
						{
							"motion_type" : "type",
							"start_time" : "2260",
							"end_time" : "2715",
							"start" : "0",
							"end" : "0"
						},
						{
							"motion_type" : "type",
							"start_time" : "2715",
							"end_time" : "3475",
							"start" : "0",
							"end" : "1"
						},
						{
							"motion_type" : "type",
							"start_time" : "3475",
							"end_time" : "5000",
							"start" : "1",
							"end" : "0"
						}
					]
				}
			]
		},
		{
			"type" : "image",
			"position" : "265,180,793,540",
			"start_time" : "0",
			"duration" : "5000",
			"image_res" : "com.nexstreaming.kmsdk.design.nexeditor.res.leaf_l",
			"adjust_pos_non_sub":"0, 30",

			"animation" : 
			[
				{
					"type" : "move",
					"values" : 
					[
						{
							"motion_type" : "type",
							"start_time" : "0",
							"end_time" : "2215",
							"start_x" : "0",
							"end_x" : "0",
							"start_y" : "0",
							"end_y" : "0"
						},
						{
							"motion_type" : "type",
							"start_time" : "2215",
							"end_time" : "3565",
							"start_x" : "0",
							"end_x" : "-145",
							"start_y" : "0",
							"end_y" : "0"
						}
					]
				},
				{
					"type" : "alpha",
					"values" : 
					[
						{
							"motion_type" : "type",
							"start_time" : "0",
							"end_time" : "2260",
							"start" : "0",
							"end" : "0"
						},
						{
							"motion_type" : "type",
							"start_time" : "2260",
							"end_time" : "2715",
							"start" : "0",
							"end" : "0"
						},
						{
							"motion_type" : "type",
							"start_time" : "2715",
							"end_time" : "3475",
							"start" : "0",
							"end" : "1"
						},
						{
							"motion_type" : "type",
							"start_time" : "3475",
							"end_time" : "5000",
							"start" : "1",
							"end" : "0"
						}					
					]
				}
			]
		},
		{
			"type" : "title",
			"text" : "TITLE",
			"group" : "2_1",
			"text_desc" : "Please Input Text",
			"text_max_len" : "39",
			"position" : "160,180,1120,360",
			"start_time" : "-1",
			"duration" : "5000",
			"font" : "system.droidsansb",
			"font_size" : "45",
			"text_color" : "#FFFFFFFF",
			"shadow_visible" : "0",
			"shadow_color" : "#FFDDCCDD",
			"glow_visible" : "0",
			"glow_color" : "#FF556655",
			"outline_visible" : "0",
			"outline_color" : "#FF101010",
			"align" : "CENTER|BOTTOM",
			"adjust_pos_non_sub":"0, 90",
			"adjust_align_non_sub":"CENTER|MIDDLE",

			"animation" : 
			[
				{
					"type" : "alpha",
					"values" : 
					[
						{
							"motion_type" : "type",
							"start_time" : "0",
							"end_time" : "750",
							"start" : "0",
							"end" : "0"
						},
						{
							"motion_type" : "type",
							"start_time" : "750",
							"end_time" : "1750",
							"start" : "0",
							"end" : "1"
						},
						{
							"motion_type" : "type",
							"start_time" : "1750",
							"end_time" : "3750",
							"start" : "1",
							"end" : "1"
						},
						{
							"motion_type" : "type",
							"start_time" : "3750",
							"end_time" : "4500",
							"start" : "1",
							"end" : "0"
						}
					]
				}
			]
		},
		{
			"type" : "title",
			"text" : "SubTitle",
			"group" : "2_2",
			"text_desc" : "Please Input Text",
			"text_max_len" : "27",
			"position" : "160,360,1120,540",
			"start_time" : "-1",
			"duration" : "5000",
			"font" : "system.droidsansb",
			"font_size" : "35",
			"text_color" : "#FFFFFFFF",
			"shadow_visible" : "0",
			"shadow_color" : "#FFDDCCDD",
			"glow_visible" : "0",
			"glow_color" : "#FF556655",
			"outline_visible" : "0",
			"outline_color" : "#FF101010",
			"align" : "CENTER|TOP",

			"animation" : 
			[
				{
					"type" : "alpha",
					"values" : 
					[
						{
							"motion_type" : "type",
							"start_time" : "0",
							"end_time" : "750",
							"start" : "0",
							"end" : "0"
						},
						{
							"motion_type" : "type",
							"start_time" : "750",
							"end_time" : "1750",
							"start" : "0",
							"end" : "1"
						},
						{
							"motion_type" : "type",
							"start_time" : "1750",
							"end_time" : "3750",
							"start" : "1",
							"end" : "1"
						},
						{
							"motion_type" : "type",
							"start_time" : "3750",
							"end_time" : "4500",
							"start" : "1",
							"end" : "0"
						}
					]
				}
			]
		}
	]
}