{
    "icon": "v1.0_1v1_2.01_oldfilm.png",
    "filename": "collage.json",
    "type": "nex.dynamiccollage",
    "hidden": "False",
    "id": "com.nexstreaming.kmsdk.thenew.nexeditor.collage.oldfilm.v1.0_1v1_2.01_oldfilm",
    "label": {
        "en": "v1.0_1v1_2.01_oldfilm"
    }
}