{
    "filename": "kedl.xml",
    "hidden": "True",
    "id": "com.nexstreaming.kmsdk.maria.nexeditor.effect.lifestyle.flare_4",
    "label": {
        "en": "com.nexstreaming.kmsdk.maria.nexeditor.effect.lifestyle.flare_4"
    },
    "mergePaths": [
        "common"
    ],
    "type": "nex.kedl"
}