{
    "type": "nex.kedl",
    "mergePaths": [
        "common"
    ],
    "id": "com.nexstreaming.kmsdk.dori.nexeditor.collage.travel_note.5",
    "label": {
        "en": "kedl"
    },
    "filename": "kedl.xml",
    "hidden": "True"
}