{
    "type": "nex.collage",
    "icon": "v3.0_1v1_3_ travelnote.png",
    "id": "com.nexstreaming.kmsdk.dori.nexeditor.collage.travel note.v3.0_1v1_3_ travelnote",
    "label": {
        "en": "collage"
    },
    "filename": "collage.json",
    "hidden": "False"
}