{
    "icon": "v1.0_4v3_2.02_dearmybaby.png",
    "label": {
        "en": "v1.0_4v3_2.02_dearmybaby"
    },
    "filename": "collage.json",
    "type": "nex.dynamiccollage",
    "id": "com.nexstreaming.kmsdk.thenew.nexeditor.collage.dearmybaby.v1.0_4v3_2.02_dearmybaby.sc.2",
    "hidden": "False"
}