{
    "filename": "kedl.xml",
    "hidden": "True",
    "id": "com.nexstreaming.kmsdk.jiyeon.nexeditor.transition.thewhiteview.9v16.trans_07",
    "label": {
        "en": "com.nexstreaming.kmsdk.jiyeon.nexeditor.transition.thewhiteview.9v16.trans_07"
    },
    "mergePaths": [
        "common"
    ],
    "type": "nex.kedl"
}