{
    "filename": "overlay_title.json",
    "hidden": false,
    "icon":"thumbnail.png",
    "id": "com.nexstreaming.kmsdk.design.nexeditor.tfx.underline.2v1.sub",
    "label": {
        "en": "UnderLine"
    },
    "type": "nex.template"
}