{
    "label": {
        "en": "kedl"
    },
    "filename": "kedl.xml",
    "type": "nex.kedl",
    "hidden": "True",
    "id": "com.nexsteaming.kmsdk.thenew.nexeditor.collage.oldfilm.2.8",
    "mergePaths": [
        "common"
    ]
}