{
    "filename": "kedl.xml",
    "hidden": "True",
    "id": "com.nexstreaming.kmsdk.jiyeon.nexeditor.effect.myownvlog.1v1.fx_07",
    "label": {
        "en": "com.nexstreaming.kmsdk.jiyeon.nexeditor.effect.myownvlog.1v1.fx_07"
    },
    "mergePaths": [
        "common"
    ],
    "type": "nex.kedl"
}