{
    "label": {
        "en": "v1.0_1v1_2.02_cutandslide"
    },
    "icon": "v1.0_1v1_2.02_cutandslide.png",
    "filename": "collage.json",
    "type": "nex.collage",
    "id": "com.nexstreaming.kmsdk.thenew.nexeditor.collage.cutandslide.v1.0_1v1_2.02_cutandslide.sc.2",
    "hidden": "False"
}