{
    "collage_name": "v1.0_1v1_2.02_cutandslide",
    "collage_version": "1.0.0",
    "collage_desc": "Collage created by Design Team, NEXSTREAMING",
    "collage_type": "dynamic",
    "collage_duration": "8000",
    "collage_edit_time": "1.00000",
    "collage_ratio": "1v1",
    "collage_dimensions": "none",
    "collage_bgm": "com.nexstreaming.kmsdk.thenew.nexeditor.collage.cutandslide.audio.dcm_cutandslide",
    "collage_bgm_volume": "0.5",
    "collage_project_vol_fade_in_time": "100",
    "collage_project_vol_fade_out_time": "100",
    "effect": "com.nexstreaming.kmsdk.thenew.nexeditor.collage.cutandslide.2.2",
    "collage_source_count": 2,
    "audio_res": "none",
    "audio_res_pos": "0",
    "frame_collage": "0",
    "reserve_field1": "0",
    "reserve_field2": "0",
    "reserve_field3": "0",
    "draw_infos": [
        {
            "draw_id": "draw_0",
            "start": "0",
            "end": "1",
            "draw_width": "0",
            "draw_height": "0",
            "source_type": "user",
            "source_default": "none",
            "lut": "none",
            "audio_res": "none",
            "audio_res_pos": "0",
            "position": "0.66667,0.66667,1.00000,0.66667,1.00000,1.00000,0.66667,1.00000,0.66667,0.66667"
        },
        {
            "draw_id": "draw_1",
            "start": "0",
            "end": "1",
            "draw_width": "0",
            "draw_height": "0",
            "source_type": "user",
            "source_default": "none",
            "lut": "none",
            "audio_res": "none",
            "audio_res_pos": "0",
            "position": "0.00000,0.00000,0.33333,0.00000,0.33333,0.33333,0.00000,0.33333,0.00000,0.00000"
        }
    ],
    "title_infos": [
        {
            "title_id": "text1_uf",
            "start": "0",
            "end": "1",
            "max_length": "12",
            "recommend_length": "12",
            "title_max_lines": "1",
            "title_type": "user",
            "title_default": {
                "en": "Cut & Slide"
            },
            "draw_id": "none",
            "position": "0.33750,0.45833,0.65972,0.45833,0.65972,0.54722,0.33750,0.54722,0.33750,0.45833"
        }
    ]
}