{
    "collage_name": "v1.0_4v3_2.05_journeybeyondtravel",
    "collage_version": "1.0.0",
    "collage_desc": "Collage created by Design Team, NEXSTREAMING",
    "collage_type": "dynamic",
    "collage_duration": "8000",
    "collage_edit_time": "1.00000",
    "collage_ratio": "4v3",
    "collage_dimensions": "none",
    "collage_bgm": "com.nexstreaming.kmsdk.thenew.nexeditor.collage.journeybeyondtravel.audio.dcm_journeybeyondtravel",
    "collage_bgm_volume": "0.5",
    "collage_project_vol_fade_in_time": "100",
    "collage_project_vol_fade_out_time": "100",
    "effect": "com.nexstreaming.kmsdk.thenew.nexeditor.collage.journeybeyondtravel.2.5",
    "collage_source_count": 5,
    "audio_res": "none",
    "audio_res_pos": "0",
    "frame_collage": "0",
    "reserve_field1": "0",
    "reserve_field2": "0",
    "reserve_field3": "0",
    "draw_infos": [
        {
            "draw_id": "draw_0",
            "start": "0",
            "end": "1",
            "draw_width": "1030",
            "draw_height": "630",
            "source_type": "user",
            "source_default": "none",
            "lut": "none",
            "audio_res": "none",
            "audio_res_pos": "0",
            "position": "0.10833,0.75278,0.40937,0.65139,0.45208,0.89861,0.14896,0.99306,0.10833,0.75278"
        },
        {
            "draw_id": "draw_1",
            "start": "0",
            "end": "1",
            "draw_width": "1030",
            "draw_height": "630",
            "source_type": "user",
            "source_default": "none",
            "lut": "none",
            "audio_res": "none",
            "audio_res_pos": "0",
            "position": "0.00417,0.51944,0.27917,0.32500,0.36979,0.55139,0.09479,0.74583,0.00417,0.51944"
        },
        {
            "draw_id": "draw_2",
            "start": "0",
            "end": "1",
            "draw_width": "700",
            "draw_height": "700",
            "source_type": "user",
            "source_default": "none",
            "lut": "none",
            "audio_res": "none",
            "audio_res_pos": "0",
            "position": "0.80000,0.17222,0.96250,0.14028,0.98646,0.36667,0.82396,0.40139,0.80000,0.17222"
        },
        {
            "draw_id": "draw_3",
            "start": "0",
            "end": "1",
            "draw_width": "700",
            "draw_height": "700",
            "source_type": "user",
            "source_default": "none",
            "lut": "none",
            "audio_res": "none",
            "audio_res_pos": "0",
            "position": "0.63542,0.23611,0.80729,0.24583,0.80000,0.47778,0.63021,0.46667,0.63542,0.23611"
        },
        {
            "draw_id": "draw_4",
            "start": "0",
            "end": "1",
            "draw_width": "1030",
            "draw_height": "630",
            "source_type": "user",
            "source_default": "none",
            "lut": "none",
            "audio_res": "none",
            "audio_res_pos": "0",
            "position": "0.69167,0.50000,0.99792,0.58611,0.96042,0.83472,0.65000,0.75000,0.69167,0.50000"
        }
    ],
    "title_infos": [
        {
            "title_id": "text1_uf",
            "start": "0",
            "end": "1",
            "max_length": "12",
            "recommend_length": "12",
            "title_type": "user",
            "title_default": {
                "en": "Bon Voyage"
            },
            "draw_id": "none",
            "position": "0.44688,0.58056,0.61250,0.58056,0.61250,0.70000,0.44688,0.70000,0.44688,0.58056"
        }
    ]
}