{
    "filename": "v.2.0_9v16_cinematic_C.json",
    "hidden": "False",
    "icon": "thumbnail.png",
    "id": "com.nexstreaming.kmsdk.design.nexeditor.template.cinematic_c.v.2.0_9v16_cinematic_C",
    "label": {
        "en": "v.2.0_9v16_cinematic_C"
    },
    "type": "nex.template"
}