{
    "hidden": "True",
    "filename": "kedl.xml",
    "type": "nex.kedl",
    "label": {
        "en": "kedl"
    },
    "mergePaths": [
        "common"
    ],
    "id": "com.nexstreaming.kmsdk.dori.nexeditor.collage.baby_album.1"
}