{
    "filename": "v.2.0_1v1_MidAutumnFestival.json",
    "hidden": "False",
    "icon": "thumbnail.png",
    "id": "com.nexstreaming.kmsdk.design.nexeditor.template.midautumnfestival.v.2.0_1v1_MidAutumnFestival",
    "label": {
        "en": "v.2.0_1v1_MidAutumnFestival"
    },
    "type": "nex.template"
}