{
	"template_name":"Travle",
	"template_version":"2.0.0",
	"template_desc":"Version : D002 - Template Created by Design Team, nexstreaming",
	"template_mode":"1v2",
	"template_bgm":"com.nexstreaming.kmsdk.brix.nexeditor.template.travel.audio.MySD_bgm",
	"template_bgm_volume":"0.5",

	"template_min_duration":"10000",
	"template_default_effect":"outro",
	"template_default_effect_scale":"1",


	"template_intro":
	[
		{
			"type": "scene",
			"source_type" : "res_video",
			"res_path" : "com.nexstreaming.kmsdk.brix.nexeditor.template.travel.background.intro_video_9v16",
			"duration" : "7000",
			"duration_min" :"7000",
			"duration_max": "7000",
			"volume" : "0",
			"effects" : "none",
			"lut" : "none",
			"color_filter" : "default",
			"brightness": "default",
			"contrast":"default",
			"saturation":"default",
			"speed_control":"100",
			"crop_mode":"pan_rand",
			"image_crop_mode":"fill",
			"apply_effect_on_res":"0",
			"audio_res":"none",
 
			"transition_name" : "none",
			"transition_duration" : "0"
		}
		
	],
	"template_loop":  
	[
		{
			"type": "scene",
			"source_type" : "res_default",
			"duration" : "2500",
			"duration_min" :"2500",
			"duration_max": "2500",
			"volume" : "0",
			"effects" : "com.nexstreaming.kmsdk.brix.nexeditor.effect.Travle.9v16.clip1",
			"lut" : "com.nexstreaming.kmsdk.brix.nexeditor.template.Travle.lut.lut_Travle",
			"color_filter" : "default",
			"brightness": "default",
			"contrast":"default",
			"saturation":"default",
			"speed_control":"100",
			"crop_mode":"default",
			"image_crop_mode":"pan_rand",
			"apply_effect_on_res":"0",
			"audio_res":"none",

			"transition_name" : "none",
			"transition_duration" : "0"
		},
		{
			"type": "scene",
			"source_type" : "res_default",
			"duration" : "2500",
			"duration_min" :"2500",
			"duration_max": "2500",
			"volume" : "0",
			"effects" : "com.nexstreaming.kmsdk.brix.nexeditor.effect.Travle.9v16.clip2",
			"lut" : "com.nexstreaming.kmsdk.brix.nexeditor.template.Travle.lut.lut_Travle",
			"color_filter" : "default",
			"brightness": "default",
			"contrast":"default",
			"saturation":"default",
			"speed_control":"100",
			"crop_mode":"default",
			"image_crop_mode":"pan_rand",
			"apply_effect_on_res":"0",
			"audio_res":"none",

			"transition_name" : "none",
			"transition_duration" : "0"
		},
		{
			"type": "scene",
			"source_type" : "res_default",
			"duration" : "2500",
			"duration_min" :"2500",
			"duration_max": "2500",
			"volume" : "0",
			"effects" : "com.nexstreaming.kmsdk.brix.nexeditor.effect.Travle.9v16.clip3",
			"lut" : "com.nexstreaming.kmsdk.brix.nexeditor.template.Travle.lut.lut_Travle",
			"color_filter" : "default",
			"brightness": "default",
			"contrast":"default",
			"saturation":"default",
			"speed_control":"100",
			"crop_mode":"default",
			"image_crop_mode":"pan_rand",
			"apply_effect_on_res":"0",
			"audio_res":"none",

			"transition_name" : "none",
			"transition_duration" : "0"
		},
		{
			"type": "scene",
			"source_type" : "res_default",
			"duration" : "2500",
			"duration_min" :"2500",
			"duration_max": "2500",
			"volume" : "0",
			"effects" : "com.nexstreaming.kmsdk.brix.nexeditor.effect.Travle.9v16.clip4",
			"lut" : "com.nexstreaming.kmsdk.brix.nexeditor.template.Travle.lut.lut_Travle",
			"color_filter" : "default",
			"brightness": "default",
			"contrast":"default",
			"saturation":"default",
			"speed_control":"100",
			"crop_mode":"default",
			"image_crop_mode":"pan_rand",
			"apply_effect_on_res":"0",
			"audio_res":"none",

			"transition_name" : "none",
			"transition_duration" : "0"
		},
		{
			"type": "scene",
			"source_type" : "res_default",
			"duration" : "2500",
			"duration_min" :"2500",
			"duration_max": "2500",
			"volume" : "0",
			"effects" : "com.nexstreaming.kmsdk.brix.nexeditor.effect.Travle.9v16.clip5",
			"lut" : "com.nexstreaming.kmsdk.brix.nexeditor.template.Travle.lut.lut_Travle",
			"color_filter" : "default",
			"brightness": "default",
			"contrast":"default",
			"saturation":"default",
			"speed_control":"100",
			"crop_mode":"default",
			"image_crop_mode":"pan_rand",
			"apply_effect_on_res":"0",
			"audio_res":"none",

			"transition_name" : "none",
			"transition_duration" : "0"
		}
		
	],
"template_outro":
	[
		{
			"type": "scene",
			"source_type" : "res_video",
			"res_path" : "com.nexstreaming.kmsdk.brix.nexeditor.template.travel.background.outro_video_9v16",
			"duration" : "10000",
			"duration_min" :"10000",
			"duration_max": "10000",
			"volume" : "0",
			"effects" : "none",
			"lut" : "none",
			"color_filter" : "default",
			"brightness": "default",
			"contrast":"default",
			"saturation":"default",
			"speed_control":"100",
			"crop_mode":"pan_rand",
			"image_crop_mode":"fit",
			"apply_effect_on_res":"0",
			"audio_res":"none",

			"transition_name" : "none",
			"transition_duration" : "0"
		}
	]     
}
