{
    "collage_name": "v1.0 _3v4_1_mysecretdiary",
    "collage_version": "1.0.0",
    "collage_desc": "Collage created by Design Team, NEXSTREAMING",
    "collage_type": "dynamic",
    "collage_duration": "8000",
    "collage_edit_time": "1.00000",
    "collage_ratio": "3v4",
    "collage_dimensions": "none",
    "collage_bgm": "com.nexstreaming.kmsdk.design.nexeditor.collage.mysecretdiary.audio.dcm_mysecretdiary",
    "collage_bgm_volume": "0.5",
    "collage_project_vol_fade_in_time": "100",
    "collage_project_vol_fade_out_time": "100",
    "effect": "com.nexstreaming.kmsdk.design.nexeditor.collage.mysecretdiary.1",
    "collage_source_count": "1",
    "audio_res": "none",
    "audio_res_pos": "0",
    "frame_collage": "0",
    "reserve_field1": "0",
    "reserve_field2": "0",
    "reserve_field3": "0",
    "draw_infos": [
        {
            "draw_id": "draw_0",
            "start": "0",
            "end": "1",
            "draw_width": "0",
            "draw_height": "0",
            "source_type": "user",
            "source_default": "none",
            "lut": "com.nexstreaming.kmsdk.design.nexeditor.collage.mysecretdiary.lut.lut_msd",
            "audio_res": "none",
            "audio_res_pos": "0",
            "position": "0.05000,0.38646,0.77083,0.39271,0.75972,0.93750,0.03750,0.92812,0.05000,0.38646"
        }
    ]
}