{
    "filename": "kedl.xml",
    "hidden": "True",
    "id": "com.nexstreaming.kmsdk.design.nexeditor.effect.midautumnfestival.9v16.out_effect_c",
    "label": {
        "en": "com.nexstreaming.kmsdk.design.nexeditor.effect.midautumnfestival.9v16.out_effect_c"
    },
    "mergePaths": [
        "common"
    ],
    "type": "nex.kedl"
}