{
	"template_name":"myownvlog",
	"template_version":"2.0.0",
	"template_desc":"Version : D001 - Template Created by Jiyeon, NEXSTREAMING",
	"template_mode":"16v9",
	"template_bgm":"com.nexstreaming.kmsdk.jiyeon.nexeditor.template.myownvlog.audio.myownvlog_bgm",
	"template_bgm_volume":"0.5",

	"template_min_duration":"6400",
	"template_default_effect":"outro",
	"template_default_effect_scale":"1",
    "template_default_image_duration":"1000",


	"template_intro":
	[
		{
			"type": "scene",
			"source_type" : "res_default",
			"duration" : "2100",
			"duration_min" :"2100",
			"duration_max": "2100",
			"volume" : "0",
			"effects" : "com.nexstreaming.kmsdk.jiyeon.nexeditor.effect.myownvlog.16v9.op_01",
			"lut":"com.nexstreaming.kmsdk.jiyeon.nexeditor.template.myownvlog.lut.pastel1",
			"color_filter" : "default",
			"brightness": "default",
			"contrast":"default",
			"saturation":"default",
			"speed_control":"100",
			"crop_mode":"fill",
			"apply_effect_on_res":"0",
			"audio_res":"none",

			"transition_name" : "none",
			"transition_duration" : "0"
		},
		{
			"type": "scene",
			"source_type" : "res_default",
			"duration" : "1735",
			"duration_min" :"1735",
			"duration_max": "1735",
			"volume" : "0",
			"effects" : "com.nexstreaming.kmsdk.jiyeon.nexeditor.effect.myownvlog.16v9.op_02",
			"lut":"com.nexstreaming.kmsdk.jiyeon.nexeditor.template.myownvlog.lut.lavendar",
			"color_filter" : "default",
			"brightness": "default",
			"contrast":"default",
			"saturation":"default",
			"speed_control":"100",
			"crop_mode":"fill",
			"image_crop_mode":"fill",
			"apply_effect_on_res":"0",
			"audio_res":"none",

			"transition_name" : "none",
			"transition_duration" : "0"
		},
		{
			"type": "scene",
			"source_type" : "res_default",
			"duration" : "1435",
			"duration_min" :"1435",
			"duration_max": "1435",
			"volume" : "0",
			"effects" : "com.nexstreaming.kmsdk.jiyeon.nexeditor.effect.myownvlog.16v9.op_02",
			"lut":"com.nexstreaming.kmsdk.jiyeon.nexeditor.template.myownvlog.lut.paris",
			"color_filter" : "default",
			"brightness": "default",
			"contrast":"default",
			"saturation":"default",
			"speed_control":"100",
			"crop_mode":"fill",
			"image_crop_mode":"fill",
			"apply_effect_on_res":"0",
			"audio_res":"none",

			"transition_name" : "none",
			"transition_duration" : "0"
		},
		{
			"type": "scene",
			"source_type" : "res_default",
			"duration" : "1450",
			"duration_min" :"1450",
			"duration_max": "1450",
			"volume" : "0",
			"effects" : "com.nexstreaming.kmsdk.jiyeon.nexeditor.effect.myownvlog.16v9.op_03",
			"lut":"com.nexstreaming.kmsdk.jiyeon.nexeditor.template.myownvlog.lut.lavendar",
			"color_filter" : "default",
			"brightness": "default",
			"contrast":"default",
			"saturation":"default",
			"speed_control":"100",
			"crop_mode":"fill",
			"apply_effect_on_res":"0",
			"audio_res":"none",

			"transition_name" : "none",
			"transition_duration" : "0"
		},
		{
			"type": "scene",
			"source_type" : "res_default",
			"duration" : "1740",
			"duration_min" :"1740",
			"duration_max": "1740",
			"volume" : "0",
			"effects" : "com.nexstreaming.kmsdk.jiyeon.nexeditor.effect.myownvlog.16v9.op_04",
			"lut":"com.nexstreaming.kmsdk.jiyeon.nexeditor.template.myownvlog.lut.disney",
			"color_filter" : "default",
			"brightness": "default",
			"contrast":"default",
			"saturation":"default",
			"speed_control":"100",
			"crop_mode":"fill",
			"image_crop_mode":"fill",
			"apply_effect_on_res":"0",
			"audio_res":"none",

			"transition_name" : "com.nexstreaming.kmsdk.jiyeon.nexeditor.transition.myownvlog.16v9.op_trans_01",
			"transition_duration" : "1435"
		}
		
	],
	"template_loop":  
	[
		{
			"type": "scene",
			"source_type" : "res_default",
			"duration" : "3450",
			"duration_min" :"3450",
			"duration_max": "3450",
			"volume" : "0",
			"effects" : "com.nexstreaming.kmsdk.jiyeon.nexeditor.effect.myownvlog.16v9.fx_01",
			"lut":"com.nexstreaming.kmsdk.jiyeon.nexeditor.template.myownvlog.lut.disney",
			"color_filter" : "default",
			"brightness": "default",
			"contrast":"default",
			"saturation":"default",
			"speed_control":"100",
			"crop_mode":"fill",
			"image_crop_mode":"fill",
			"apply_effect_on_res":"0",
			"audio_res":"none",

			"transition_name" : "none",
			"transition_duration" : "0"
		},
		{
			"type": "scene",
			"source_type" : "res_default",
			"duration" : "2630",
			"duration_min" :"2630",
			"duration_max": "2630",
			"volume" : "0",
			"effects" : "com.nexstreaming.kmsdk.jiyeon.nexeditor.effect.myownvlog.16v9.fx_06",
			"lut":"com.nexstreaming.kmsdk.jiyeon.nexeditor.template.myownvlog.lut.lavendar",
			"color_filter" : "default",
			"brightness": "default",
			"contrast":"default",
			"saturation":"default",
			"speed_control":"100",
			"crop_mode":"fill",
			"image_crop_mode":"fill",
			"apply_effect_on_res":"0",
			"audio_res":"none",

			"transition_name" : "none",
			"transition_duration" : "0"
		},
		{
			"type": "scene",
			"source_type" : "res_default",
			"duration" : "4630",
			"duration_min" :"4630",
			"duration_max": "4630",
			"volume" : "0",
			"effects" : "com.nexstreaming.kmsdk.jiyeon.nexeditor.effect.myownvlog.16v9.fx_02",
			"lut":"com.nexstreaming.kmsdk.jiyeon.nexeditor.template.myownvlog.lut.pastel1",
			"color_filter" : "default",
			"brightness": "default",
			"contrast":"default",
			"saturation":"default",
			"speed_control":"100",
			"crop_mode":"fill",
			"image_crop_mode":"fill",
			"apply_effect_on_res":"0",
			"audio_res":"none",

			"transition_name" : "none",
			"transition_duration" : "0"
		},
		{
			"type": "scene",
			"source_type" : "res_default",
			"duration" : "2065",
			"duration_min" :"2065",
			"duration_max": "2065",
			"volume" : "0",
			"effects" : "com.nexstreaming.kmsdk.jiyeon.nexeditor.effect.myownvlog.16v9.fx_02_01",
			"lut":"com.nexstreaming.kmsdk.jiyeon.nexeditor.template.myownvlog.lut.pastel1",
			"color_filter" : "default",
			"brightness": "default",
			"contrast":"default",
			"saturation":"default",
			"speed_control":"100",
			"crop_mode":"fill",
			"image_crop_mode":"fill",
			"apply_effect_on_res":"0",
			"audio_res":"none",

			"transition_name" : "none",
			"transition_duration" : "0"
		},
		{
			"type": "scene",
			"source_type" : "res_default",
			"duration" : "2600",
			"duration_min" :"2600",
			"duration_max": "2600",
			"volume" : "0",
			"effects" : "com.nexstreaming.kmsdk.jiyeon.nexeditor.effect.myownvlog.16v9.fx_02_01",
			"lut":"com.nexstreaming.kmsdk.jiyeon.nexeditor.template.myownvlog.lut.paris",
			"color_filter" : "default",
			"brightness": "default",
			"contrast":"default",
			"saturation":"default",
			"speed_control":"100",
			"crop_mode":"fill",
			"image_crop_mode":"fill",
			"apply_effect_on_res":"0",
			"audio_res":"none",

			"transition_name" : "none",
			"transition_duration" : "0"
		},
		{
			"type": "scene",
			"source_type" : "res_default",
			"duration" : "4400",
			"duration_min" :"4400",
			"duration_max": "4400",
			"volume" : "0",
			"effects" : "com.nexstreaming.kmsdk.jiyeon.nexeditor.effect.myownvlog.16v9.fx_03",
			"lut":"com.nexstreaming.kmsdk.jiyeon.nexeditor.template.myownvlog.lut.pastel1",
			"color_filter" : "default",
			"brightness": "default",
			"contrast":"default",
			"saturation":"default",
			"speed_control":"100",
			"crop_mode":"fill",
			"image_crop_mode":"fill",
			"apply_effect_on_res":"0",
			"audio_res":"none",

			"transition_name" : "none",
			"transition_duration" : "0"
		},
		{
			"type": "scene",
			"source_type" : "res_default",
			"duration" : "4930",
			"duration_min" :"4930",
			"duration_max": "4930",
			"volume" : "0",
			"effects" : "com.nexstreaming.kmsdk.jiyeon.nexeditor.effect.myownvlog.16v9.fx_04",
			"lut":"com.nexstreaming.kmsdk.jiyeon.nexeditor.template.myownvlog.lut.disney",
			"color_filter" : "default",
			"brightness": "default",
			"contrast":"default",
			"saturation":"default",
			"speed_control":"100",
			"crop_mode":"fill",
			"image_crop_mode":"fill",
			"apply_effect_on_res":"0",
			"audio_res":"none",

			"transition_name" : "none",
			"transition_duration" : "0"
		},
		{
			"type": "scene",
			"source_type" : "res_default",
			"duration" : "4370",
			"duration_min" :"4370",
			"duration_max": "4370",
			"volume" : "0",
			"effects" : "com.nexstreaming.kmsdk.jiyeon.nexeditor.effect.myownvlog.16v9.fx_05",
			"lut":"com.nexstreaming.kmsdk.jiyeon.nexeditor.template.myownvlog.lut.lavendar",
			"color_filter" : "default",
			"brightness": "default",
			"contrast":"default",
			"saturation":"default",
			"speed_control":"100",
			"crop_mode":"fill",
			"image_crop_mode":"fill",
			"apply_effect_on_res":"0",
			"audio_res":"none",

			"transition_name" : "none",
			"transition_duration" : "0"
		},
		{
			"type": "scene",
			"source_type" : "res_default",
			"duration" : "4970",
			"duration_min" :"4970",
			"duration_max": "4970",
			"volume" : "0",
			"effects" : "com.nexstreaming.kmsdk.jiyeon.nexeditor.effect.myownvlog.16v9.fx_06",
			"lut":"com.nexstreaming.kmsdk.jiyeon.nexeditor.template.myownvlog.lut.pastel1",
			"color_filter" : "default",
			"brightness": "default",
			"contrast":"default",
			"saturation":"default",
			"speed_control":"100",
			"crop_mode":"fill",
			"image_crop_mode":"fill",
			"apply_effect_on_res":"0",
			"audio_res":"none",

			"transition_name" : "none",
			"transition_duration" : "0"
		},
		{
			"type": "scene",
			"source_type" : "res_default",
			"duration" : "4635",
			"duration_min" :"4635",
			"duration_max": "4635",
			"volume" : "0",
			"effects" : "com.nexstreaming.kmsdk.jiyeon.nexeditor.effect.myownvlog.16v9.fx_07",
			"lut":"com.nexstreaming.kmsdk.jiyeon.nexeditor.template.myownvlog.lut.lavendar",
			"color_filter" : "default",
			"brightness": "default",
			"contrast":"default",
			"saturation":"default",
			"speed_control":"100",
			"crop_mode":"fill",
			"image_crop_mode":"fill",
			"apply_effect_on_res":"0",
			"audio_res":"none",

			"transition_name" : "none",
			"transition_duration" : "0"
		},
		{
			"type": "scene",
			"source_type" : "res_default",
			"duration" : "3200",
			"duration_min" :"3200",
			"duration_max": "3200",
			"volume" : "0",
			"effects" : "com.nexstreaming.kmsdk.jiyeon.nexeditor.effect.myownvlog.16v9.fx_08",
			"lut":"com.nexstreaming.kmsdk.jiyeon.nexeditor.template.myownvlog.lut.pastel1",
			"color_filter" : "default",
			"brightness": "default",
			"contrast":"default",
			"saturation":"default",
			"speed_control":"100",
			"crop_mode":"fill",
			"image_crop_mode":"fill",
			"apply_effect_on_res":"0",
			"audio_res":"none",

			"transition_name" : "com.nexstreaming.kmsdk.jiyeon.nexeditor.transition.myownvlog.16v9.trans_01",
			"transition_duration" : "1435"
		},
		{
			"type": "scene",
			"source_type" : "res_default",
			"duration" : "2835",
			"duration_min" :"2835",
			"duration_max": "2835",
			"volume" : "0",
			"effects" : "com.nexstreaming.kmsdk.jiyeon.nexeditor.effect.myownvlog.16v9.fx_09",
			"lut":"com.nexstreaming.kmsdk.jiyeon.nexeditor.template.myownvlog.lut.pastel1",
			"color_filter" : "default",
			"brightness": "default",
			"contrast":"default",
			"saturation":"default",
			"speed_control":"100",
			"crop_mode":"fill",
			"image_crop_mode":"fill",
			"apply_effect_on_res":"0",
			"audio_res":"none",

			"transition_name" : "none",
			"transition_duration" : "0"
		},
		{
			"type": "scene",
			"source_type" : "res_default",
			"duration" : "3200",
			"duration_min" :"3200",
			"duration_max": "3200",
			"volume" : "0",
			"effects" : "com.nexstreaming.kmsdk.jiyeon.nexeditor.effect.myownvlog.16v9.fx_09",
			"lut":"com.nexstreaming.kmsdk.jiyeon.nexeditor.template.myownvlog.lut.paris",
			"color_filter" : "default",
			"brightness": "default",
			"contrast":"default",
			"saturation":"default",
			"speed_control":"100",
			"crop_mode":"fill",
			"image_crop_mode":"fill",
			"apply_effect_on_res":"0",
			"audio_res":"none",

			"transition_name" : "none",
			"transition_duration" : "0"
		},
		{
			"type": "scene",
			"source_type" : "res_default",
			"duration" : "4635",
			"duration_min" :"4635",
			"duration_max": "4635",
			"volume" : "0",
			"effects" : "com.nexstreaming.kmsdk.jiyeon.nexeditor.effect.myownvlog.16v9.fx_10",
			"lut":"com.nexstreaming.kmsdk.jiyeon.nexeditor.template.myownvlog.lut.disney",
			"color_filter" : "default",
			"brightness": "default",
			"contrast":"default",
			"saturation":"default",
			"speed_control":"100",
			"crop_mode":"fill",
			"image_crop_mode":"fill",
			"apply_effect_on_res":"0",
			"audio_res":"none",

			"transition_name" : "none",
			"transition_duration" : "0"
		},
		{
			"type": "scene",
			"source_type" : "res_default",
			"duration" : "4660",
			"duration_min" :"4660",
			"duration_max": "4660",
			"volume" : "0",
			"effects" : "com.nexstreaming.kmsdk.jiyeon.nexeditor.effect.myownvlog.16v9.fx_11",
			"lut":"com.nexstreaming.kmsdk.jiyeon.nexeditor.template.myownvlog.lut.lavendar",
			"color_filter" : "default",
			"brightness": "default",
			"contrast":"default",
			"saturation":"default",
			"speed_control":"100",
			"crop_mode":"fill",
			"image_crop_mode":"fill",
			"apply_effect_on_res":"0",
			"audio_res":"none",

			"transition_name" : "none",
			"transition_duration" : "0"
		}
	
	],
	"template_outro":
	[
		{
			"type": "scene",
			"source_type" : "res_default",
			"duration" : "6400",
			"duration_min" :"6400",
			"duration_max": "7500",
			"volume" : "0",
			"effects" : "com.nexstreaming.kmsdk.jiyeon.nexeditor.effect.myownvlog.16v9.out_01",
			"lut":"none",
			"color_filter" : "default",
			"brightness": "default",
			"contrast":"default",
			"saturation":"default",
			"speed_control":"100",
			"crop_mode":"default",
			"image_crop_mode":"fill",
			"apply_effect_on_res":"0",
			"audio_res":"none",

			"transition_name" : "none",
			"transition_duration" : "0"
		}
	],
	"template_single":
	[
		{
			"type": "scene",
			"source_type" : "res_default",
			"duration" : "5240",
			"duration_min" :"5240",
			"duration_max": "5240",
			"volume" : "0",
			"effects" : "com.nexstreaming.kmsdk.jiyeon.nexeditor.effect.myownvlog.16v9.single",
			"lut":"com.nexstreaming.kmsdk.jiyeon.nexeditor.template.myownvlog.lut.pastel1",
			"color_filter" : "default",
			"brightness": "default",
			"contrast":"default",
			"saturation":"default",
			"speed_control":"100",
			"crop_mode":"default",
			"image_crop_mode":"fill",
			"apply_effect_on_res":"1",
			"audio_res":"none",

			"transition_name" : "none",
			"transition_duration" : "0"
		}
	]      
}