{
    "icon": "v1.0 _3v4_3_mysecretdiary.png",
    "label": {
        "en": "v1.0 _3v4_3_mysecretdiary"
    },
    "filename": "collage.json",
    "type": "nex.collage",
    "id": "com.nexstreaming.kmsdk.design.nexeditor.collage.mysecretdiary.v1.0 _3v4_3_mysecretdiary.sc.3",
    "hidden": "False"
}