{
    "collage_name": "v3.0_3v4_5_baby album",
    "collage_version": "1.0.0",
    "collage_desc": "Collage created by Design Team, NEXSTREAMING",
    "collage_type": "dynamic",
    "collage_duration": "8000",
    "collage_edit_time": "1.00000",
    "collage_ratio": "3v4",
    "collage_dimensions": "none",
    "collage_bgm": "com.nexstreaming.kmsdk.dori.nexeditor.collage.baby album.audio.dcm_babyalbum",
    "collage_bgm_volume": "0.5",
    "collage_project_vol_fade_in_time": "100",
    "collage_project_vol_fade_out_time": "100",
    "effect": "com.nexstreaming.kmsdk.dori.nexeditor.collage.baby_album.5",
    "collage_source_count": 5,
    "audio_res": "none",
    "audio_res_pos": "0",
    "frame_collage": "0",
    "reserve_field1": "0",
    "reserve_field2": "0",
    "reserve_field3": "0",
    "draw_infos": [
        {
            "draw_id": "draw_0",
            "start": "0",
            "end": "1",
            "draw_width": "321",
            "draw_height": "255",
            "source_type": "user",
            "source_default": "none",
            "lut": "none",
            "audio_res": "none",
            "audio_res_pos": "0",
            "position": "0.06250,0.08854,0.50833,0.08854,0.50833,0.35417,0.06250,0.35417,0.06250,0.08854"
        },
        {
            "draw_id": "draw_1",
            "start": "0",
            "end": "1",
            "draw_width": "323",
            "draw_height": "322",
            "source_type": "user",
            "source_default": "none",
            "lut": "none",
            "audio_res": "none",
            "audio_res_pos": "0",
            "position": "0.52778,0.01875,0.97778,0.01875,0.97778,0.35521,0.52778,0.35521,0.52778,0.01875"
        },
        {
            "draw_id": "draw_2",
            "start": "0",
            "end": "1",
            "draw_width": "264",
            "draw_height": "252",
            "source_type": "user",
            "source_default": "none",
            "lut": "none",
            "audio_res": "none",
            "audio_res_pos": "0",
            "position": "0.06250,0.36875,0.42917,0.36875,0.42917,0.63125,0.06250,0.63125,0.06250,0.36875"
        },
        {
            "draw_id": "draw_3",
            "start": "0",
            "end": "1",
            "draw_width": "208",
            "draw_height": "251",
            "source_type": "user",
            "source_default": "none",
            "lut": "none",
            "audio_res": "none",
            "audio_res_pos": "0",
            "position": "0.45139,0.36875,0.73889,0.36875,0.73889,0.63021,0.45139,0.63021,0.45139,0.36875"
        },
        {
            "draw_id": "draw_4",
            "start": "0",
            "end": "1",
            "draw_width": "378",
            "draw_height": "316",
            "source_type": "user",
            "source_default": "none",
            "lut": "none",
            "audio_res": "none",
            "audio_res_pos": "0",
            "position": "0.45139,0.64687,0.97639,0.64687,0.97639,0.97604,0.45139,0.97604,0.45139,0.64687"
        }
    ],
    "title_infos": [
        {
            "title_id": "text1_uf",
            "start": "0",
            "end": "1",
            "max_length": "20",
            "recommend_length": "20",
            "title_max_lines": "1",
            "title_type": "user",
            "title_default": {
                "en": "My lovely baby Jimmy"
            },
            "draw_id": "none",
            "position": "0.06250,0.02917,0.50833,0.02917,0.50833,0.06458,0.06250,0.06458,0.06250,0.02917"
        },
        {
            "title_id": "text2_uf",
            "start": "0",
            "end": "1",
            "max_length": "2",
            "recommend_length": "2",
            "title_max_lines": "1",
            "title_type": "user",
            "title_default": {
                "en": "10"
            },
            "draw_id": "none",
            "position": "0.80972,0.43125,0.94444,0.43125,0.94444,0.50833,0.80972,0.50833,0.80972,0.43125"
        },
        {
            "title_id": "text3_uf",
            "start": "0",
            "end": "1",
            "max_length": "6",
            "recommend_length": "6",
            "title_max_lines": "1",
            "title_type": "user",
            "title_default": {
                "en": "MONTHS"
            },
            "draw_id": "none",
            "position": "0.80000,0.51562,0.94583,0.51562,0.94583,0.54688,0.80000,0.54688,0.80000,0.51562"
        }
    ]
}