{
    "filename": "v.2.0_9v16_myownvlog.json",
    "hidden": "False",
    "icon": "thumbnail.png",
    "id": "com.nexstreaming.kmsdk.jiyeon.nexeditor.template.myownvlog.v.2.0_9v16_myownvlog",
    "label": {
        "en": "v.2.0_9v16_myownvlog"
    },
    "type": "nex.template"
}