{
    "filename": "overlay_title.json",
    "hidden": false,
    "icon":"thumbnail.png",
    "id": "com.nexstreaming.kmsdk.design.nexeditor.tfx.parallellines.16v9.sub",
    "label": {
        "en": "ParallelLines"
    },
    "type": "nex.template"
}