{
    "filename": "kedl.xml",
    "hidden": "True",
    "id": "com.nexstreaming.kmsdk.brix.nexeditor.effect.90shomevideo.2v1.outro",
    "label": {
        "en": "com.nexstreaming.kmsdk.brix.nexeditor.effect.90shomevideo.2v1.outro"
    },
    "mergePaths": [
        "common"
    ],
    "type": "nex.kedl"
}