{
    "filename": "kedl.xml",
    "hidden": "True",
    "id": "com.nexstreaming.kmsdk.design.nexeditor.effect.show_me_your_memory.16v9.intro_3",
    "label": {
        "en": "com.nexstreaming.kmsdk.design.nexeditor.effect.show_me_your_memory.16v9.intro_3"
    },
    "mergePaths": [
        "common"
    ],
    "type": "nex.kedl"
}