{
    "filename": "kedl.xml",
    "hidden": "True",
    "id": "com.nexstreaming.kmsdk.jiyeon.nexeditor.transition.thewhiteview.16v9.op_trans",
    "label": {
        "en": "com.nexstreaming.kmsdk.jiyeon.nexeditor.transition.thewhiteview.16v9.op_trans"
    },
    "mergePaths": [
        "common"
    ],
    "type": "nex.kedl"
}