{
	"template_name":"Epic Opener",
	"template_version":"2.0.0",
	"template_desc":"Version : D002 - Template Created by Design Team, NEXSTREAMING",
	"template_mode":"2v1",
	"template_bgm":"com.nexstreaming.kmsdk.design.nexeditor.template.epicopener.audio.epicopener",
	"template_bgm_volume":"0.5",

	"template_min_duration":"5000",
	"template_default_effect":"outro",
	"template_default_effect_scale":"1",

	"template_intro":
	[
		{
			"type": "scene",
			"source_type" : "res_default",
			"duration" : "3000",
			"duration_min" :"2850",
			"duration_max": "3250",
			"volume" : "0",
			"effects" : "com.nexstreaming.kmsdk.design.nexeditor.effect.epicopener.16v9.intro",
			"lut":"default",
			"color_filter" : "default",
			"brightness": "default",
			"contrast":"default",
			"saturation":"default",
			"speed_control":"100",
			"image_crop_mode":"pan_rand",
			"apply_effect_on_res":"0",
			"audio_res":"none",

			"transition_name" : "com.nexstreaming.kmsdk.design.nexeditor.transition.epicopener.16v9.trans_upwardslide",
			"transition_duration" : "2000"
		},
		{
			"type": "scene",
			"source_type" : "res_default",
			"duration" : "4500",
			"duration_min" :"4250",
			"duration_max": "5000",
			"volume" : "0",
			"effects" : "com.nexstreaming.kmsdk.design.nexeditor.effect.epicopener.16v9.intro2",
			"lut":"default",
			"color_filter" : "default",
			"brightness": "default",
			"contrast":"default",
			"saturation":"default",
			"speed_control":"100",
			"image_crop_mode":"pan_rand",
			"apply_effect_on_res":"0",
			"audio_res":"none",

			"transition_name" : "com.nexstreaming.kmsdk.design.nexeditor.transition.epicopener.16v9.trans_rightwardslide",
			"transition_duration" : "2000"
		},
		{
			"type": "scene",
			"source_type" : "res_default",
			"duration" : "3500",
			"duration_min" :"3500",
			"duration_max": "3750",
			"volume" : "0",
			"effects" : "com.nexstreaming.kmsdk.design.nexeditor.effect.epicopener.16v9.intro3",
			"lut":"default",
			"color_filter" : "default",
			"brightness": "default",
			"contrast":"default",
			"saturation":"default",
			"speed_control":"100",
			"image_crop_mode":"pan_rand",
			"apply_effect_on_res":"0",
			"audio_res":"none",

			"transition_name" : "com.nexstreaming.kmsdk.design.nexeditor.transition.epicopener.16v9.trans_crosszoomin",
			"transition_duration" : "1500"
		}
	],
	"template_loop":
	[
		{
			"type": "scene",
			"source_type" : "res_default",
			"duration" : "2500",
			"duration_min" :"2500",
			"duration_max": "2500",
			"volume" : "0",
			"effects" : "com.nexstreaming.kmsdk.design.nexeditor.effect.epicopener.16v9.loop_light",
			"lut":"default",
			"color_filter" : "default",
			"brightness": "default",
			"contrast":"default",
			"saturation":"default",
			"speed_control":"100",
			"image_crop_mode":"pan_rand",
			"apply_effect_on_res":"0",
			"audio_res":"none",

			"transition_name" : "com.nexstreaming.kmsdk.design.nexeditor.transition.epicopener.16v9.trans_crosszoomin",
			"transition_duration" : "1500"
		},
		{
			"type": "scene",
			"source_type" : "res_default",
			"duration" : "2500",
			"duration_min" :"2500",
			"duration_max": "2500",
			"volume" : "0",
			"effects" : "com.nexstreaming.kmsdk.design.nexeditor.effect.epicopener.16v9.loop_light",
			"lut":"default",
			"color_filter" : "default",
			"brightness": "default",
			"contrast":"default",
			"saturation":"default",
			"speed_control":"100",
			"image_crop_mode":"pan_rand",
			"apply_effect_on_res":"0",
			"audio_res":"none",

			"transition_name" : "com.nexstreaming.kmsdk.design.nexeditor.transition.epicopener.16v9.trans_rightwardslide3",
			"transition_duration" : "1500"
		},
		{
			"type": "scene",
			"source_type" : "res_default",
			"duration" : "2500",
			"duration_min" :"2500",
			"duration_max": "2500",
			"volume" : "0",
			"effects" : "com.nexstreaming.kmsdk.design.nexeditor.effect.epicopener.16v9.loop_light",
			"lut":"default",
			"color_filter" : "default",
			"brightness": "default",
			"contrast":"default",
			"saturation":"default",
			"speed_control":"100",
			"image_crop_mode":"pan_rand",
			"apply_effect_on_res":"0",
			"audio_res":"none",

			"transition_name" : "com.nexstreaming.kmsdk.design.nexeditor.transition.epicopener.16v9.trans_leftwardslide",
			"transition_duration" : "1500"
		},
		{
			"type": "scene",
			"source_type" : "res_default",
			"duration" : "2500",
			"duration_min" :"2500",
			"duration_max": "2500",
			"volume" : "0",
			"effects" : "com.nexstreaming.kmsdk.design.nexeditor.effect.epicopener.16v9.loop_light",
			"lut":"default",
			"color_filter" : "default",
			"brightness": "default",
			"contrast":"default",
			"saturation":"default",
			"speed_control":"100",
			"image_crop_mode":"pan_rand",
			"apply_effect_on_res":"0",
			"audio_res":"none",

			"transition_name" : "com.nexstreaming.kmsdk.design.nexeditor.transition.epicopener.16v9.trans_crosszoomin",
			"transition_duration" : "1500"
		},
		{
			"type": "scene",
			"source_type" : "res_default",
			"duration" : "2500",
			"duration_min" :"2500",
			"duration_max": "2500",
			"volume" : "0",
			"effects" : "com.nexstreaming.kmsdk.design.nexeditor.effect.epicopener.16v9.loop_light",
			"lut":"default",
			"color_filter" : "default",
			"brightness": "default",
			"contrast":"default",
			"saturation":"default",
			"speed_control":"100",
			"image_crop_mode":"pan_rand",
			"apply_effect_on_res":"0",
			"audio_res":"none",

			"transition_name" : "com.nexstreaming.kmsdk.design.nexeditor.transition.epicopener.16v9.trans_downwardslide",
			"transition_duration" : "1500"
		},
		{
			"type": "scene",
			"source_type" : "res_default",
			"duration" : "2500",
			"duration_min" :"2500",
			"duration_max": "2500",
			"volume" : "0",
			"effects" : "com.nexstreaming.kmsdk.design.nexeditor.effect.epicopener.16v9.loop_light",
			"lut":"default",
			"color_filter" : "default",
			"brightness": "default",
			"contrast":"default",
			"saturation":"default",
			"speed_control":"100",
			"image_crop_mode":"pan_rand",
			"apply_effect_on_res":"0",
			"audio_res":"none",

			"transition_name" : "com.nexstreaming.kmsdk.design.nexeditor.transition.epicopener.16v9.trans_upwardslide2",
			"transition_duration" : "1500"
		},
		{
			"type": "scene",
			"source_type" : "res_default",
			"duration" : "2500",
			"duration_min" :"2500",
			"duration_max": "2500",
			"volume" : "0",
			"effects" : "com.nexstreaming.kmsdk.design.nexeditor.effect.epicopener.16v9.loop_light",
			"lut":"default",
			"color_filter" : "default",
			"brightness": "default",
			"contrast":"default",
			"saturation":"default",
			"speed_control":"100",
			"image_crop_mode":"pan_rand",
			"apply_effect_on_res":"0",
			"audio_res":"none",

			"transition_name" : "com.nexstreaming.kmsdk.design.nexeditor.transition.epicopener.16v9.trans_crosszoomin",
			"transition_duration" : "1500"
		}
	],
	"template_outro":
	[
		{
			"type": "scene",
			"source_type" : "res_default",
			"duration" : "3500",
			"duration_min" :"3500",
			"duration_max": "3500",
			"volume" : "0",
			"effects" : "com.nexstreaming.kmsdk.design.nexeditor.effect.epicopener.16v9.outro2",
			"lut":"default",
			"color_filter" : "default",
			"brightness": "default",
			"contrast":"default",
			"saturation":"default",
			"speed_control":"100",
			"image_crop_mode":"pan_rand",
			"apply_effect_on_res":"0",
			"audio_res":"none",

			"transition_name" : "none",
			"transition_duration" : "0"			
		}
	]     
}