{
    "SDKLevel": "2",
    "assetName": {
       "en": "MyOwnVlog",
       "ja": "Vlog",
       "ko-KR": "Vlog",
       "zh-CN": "专属风格",
       "zh-TW": "专属风格"
    },
    "format": "com.kinemaster.assetpackage",
    "itemRoots": [
        "audio/myownvlog_bgm",
        "effect/myownvlog.16v9.fx_01",
        "effect/myownvlog.16v9.fx_02",
        "effect/myownvlog.16v9.fx_02_01",
        "effect/myownvlog.16v9.fx_03",
        "effect/myownvlog.16v9.fx_04",
        "effect/myownvlog.16v9.fx_05",
        "effect/myownvlog.16v9.fx_06",
        "effect/myownvlog.16v9.fx_07",
        "effect/myownvlog.16v9.fx_08",
        "effect/myownvlog.16v9.fx_09",
        "effect/myownvlog.16v9.fx_10",
        "effect/myownvlog.16v9.fx_11",
        "effect/myownvlog.16v9.op_01",
        "effect/myownvlog.16v9.op_02",
        "effect/myownvlog.16v9.op_03",
        "effect/myownvlog.16v9.op_04",
        "effect/myownvlog.16v9.out_01",
        "effect/myownvlog.16v9.single",
        "effect/myownvlog.1v1.fx_01",
        "effect/myownvlog.1v1.fx_02",
        "effect/myownvlog.1v1.fx_02_01",
        "effect/myownvlog.1v1.fx_03",
        "effect/myownvlog.1v1.fx_04",
        "effect/myownvlog.1v1.fx_05",
        "effect/myownvlog.1v1.fx_06",
        "effect/myownvlog.1v1.fx_07",
        "effect/myownvlog.1v1.fx_08",
        "effect/myownvlog.1v1.fx_09",
        "effect/myownvlog.1v1.fx_10",
        "effect/myownvlog.1v1.fx_11",
        "effect/myownvlog.1v1.op_01",
        "effect/myownvlog.1v1.op_02",
        "effect/myownvlog.1v1.op_03",
        "effect/myownvlog.1v1.op_04",
        "effect/myownvlog.1v1.out_01",
        "effect/myownvlog.1v1.single",
        "effect/myownvlog.9v16.fx_01",
        "effect/myownvlog.9v16.fx_02",
        "effect/myownvlog.9v16.fx_02_01",
        "effect/myownvlog.9v16.fx_03",
        "effect/myownvlog.9v16.fx_04",
        "effect/myownvlog.9v16.fx_05",
        "effect/myownvlog.9v16.fx_06",
        "effect/myownvlog.9v16.fx_07",
        "effect/myownvlog.9v16.fx_08",
        "effect/myownvlog.9v16.fx_09",
        "effect/myownvlog.9v16.fx_10",
        "effect/myownvlog.9v16.fx_11",
        "effect/myownvlog.9v16.op_01",
        "effect/myownvlog.9v16.op_02",
        "effect/myownvlog.9v16.op_03",
        "effect/myownvlog.9v16.op_04",
        "effect/myownvlog.9v16.out_01",
        "effect/myownvlog.9v16.single",
        "filter/disney",
        "filter/lavendar",
        "filter/paris",
        "filter/pastel1",
        "template/v.2.0_16v9_myownvlog",
        "template/v.2.0_1v1_myownvlog",
        "template/v.2.0_9v16_myownvlog",
        "transition/myownvlog.16v9.op_trans_01",
        "transition/myownvlog.16v9.trans_01",
        "transition/myownvlog.1v1.op_trans_01",
        "transition/myownvlog.1v1.trans_01",
        "transition/myownvlog.9v16.op_trans_01",
        "transition/myownvlog.9v16.trans_01"
    ],
    "minVersionCode": "2",
    "packageContentVersion": 10001,
    "targetVersionCode": "2"
}