{
    "filename": "line_rt.png",
    "hidden": true,
    "id": "com.nexstreaming.kmsdk.design.nexeditor.conerlines.res.line_rt",
    "label": {
        "en": "line_rotation"
    },
    "type": "nex.overlay"
}