{
    "filename": "intro_video_1v1.mp4",
    "hidden": "True",
    "id": "com.nexstreaming.kmsdk.brix.nexeditor.template.travel.background.intro_video_1v1",
    "label": {
        "en": "intro_video_1v1"
    },
    "type": "nex.media"
}