{
	"template_name": "FunkyMove",
	"template_version": "2.0.0",
	"template_desc": "Version : D001 - Template Created by Design Team, NEXSTREAMING",
	"template_mode": "16v9",
	"template_bgm": "com.nexstreaming.kmsdk.design.nexeditor.template.funkymove.audio.FunkyMove",
	"template_bgm_volume": "0.5",

	"template_min_duration": "5000",
	"template_default_effect": "outro",
	"template_default_effect_scale": "1",
	"template_project_vol_fade_out_time": "5000",



	"template_intro": 
	[
		{
		"type" : "scene",
		"source_type": "res_video",
		"res_path" : "com.nexstreaming.kmsdk.design.nexeditor.template.funkymove.background.funkymove_intro_16v9_3750",
		"duration" : "3750",
		"duration_min" : "3750",
		"duration_max" : "4250",
		"volume" : "0",
		"effects": "none",
		"lut" : "null",
		"color_filter" : "default",
		"brightness" : "default",
		"contrast" : "default",
		"saturation" : "default",
		"speed_control" : "100",
		"crop_mode" : "fill",
		"apply_effect_on_res" : "0",
		"audio_res" : "none",

		"transition_name" : "none",
		"transition_duration" : "0"
		},
		{
		"type" : "scene",
		"source_type" : "res_default",
		"duration" : "1500",
		"duration_min" : "1500",
		"duration_max" : "2000",
		"volume" : "0",
		"effects": "com.nexstreaming.kmsdk.design.nexeditor.effect.funkymove.16v9.intro_fx",
		"lut": "com.nexstreaming.kmsdk.design.nexeditor.template.funkymove.lut.lut_C27",
		"color_filter" : "default",
		"brightness" : "default",
		"contrast" : "default",
		"saturation" : "default",
		"speed_control" : "100",
		"crop_mode" : "fill",
		"apply_effect_on_res" : "0",
		"audio_res" : "none",

		"transition_name" : "com.nexstreaming.kmsdk.design.nexeditor.transition.funkymove.16v9.intro_tran",
		"transition_duration" : "2500"
		}
	],
	"template_loop": 
	[
		{
			"type": "scene",
			"source_type": "res_default",
			"duration": "5500",
			"duration_min": "5500",
			"duration_max": "6000",
			"volume": "0",
			"effects": "com.nexstreaming.kmsdk.design.nexeditor.effect.funkymove.16v9.fx_1",
			"lut": "com.nexstreaming.kmsdk.design.nexeditor.template.funkymove.lut.lut_C27",
			"color_filter": "default",
			"brightness": "default",
			"contrast": "default",
			"saturation": "default",
			"speed_control": "100",
			"crop_mode": "fill",
			"apply_effect_on_res": "0",
			"audio_res": "none",

			"transition_name": "com.nexstreaming.kmsdk.design.nexeditor.transition.funkymove.16v9.tran_1",
			"transition_duration": "800",

			"identifier" : "loop.scene.id.1"
		},
		{
			"type": "scene",
			"source_type": "res_default",
			"duration": "2100",
			"duration_min": "2100",
			"duration_max": "2600",
			"volume": "0",
			"effects": "com.nexstreaming.kmsdk.design.nexeditor.effect.funkymove.16v9.fx_2",
			"lut": "com.nexstreaming.kmsdk.design.nexeditor.template.funkymove.lut.lut_C27",
			"color_filter": "default",
			"brightness": "default",
			"contrast": "default",
			"saturation": "default",
			"speed_control": "100",
			"crop_mode": "fill",
			"apply_effect_on_res": "0",
			"audio_res": "none",

			"transition_name": "com.nexstreaming.kmsdk.design.nexeditor.transition.funkymove.16v9.tran_2",
			"transition_duration": "2500",

			"identifier" : "loop.scene.id.2"
		}, 
		{
			"type": "scene",
			"source_type": "res_default",
			"duration": "5500",
			"duration_min": "5500",
			"duration_max": "6000",
			"volume": "0",
			"effects": "com.nexstreaming.kmsdk.design.nexeditor.effect.funkymove.16v9.fx_3",
			"lut": "com.nexstreaming.kmsdk.design.nexeditor.template.funkymove.lut.lut_C27",
			"color_filter": "default",
			"brightness": "default",
			"contrast": "default",
			"saturation": "default",
			"speed_control": "100",
			"crop_mode": "fill",
			"apply_effect_on_res": "0",
			"audio_res": "none",

			"transition_name": "com.nexstreaming.kmsdk.design.nexeditor.transition.funkymove.16v9.tran_3",
			"transition_duration": "800",

			"identifier" : "loop.scene.id.1"

		}, 
		{
			"type": "scene",
			"source_type": "res_default",
			"duration": "2100",
			"duration_min": "2100",
			"duration_max": "2600",
			"volume": "0",
			"effects": "com.nexstreaming.kmsdk.design.nexeditor.effect.funkymove.16v9.fx_4",
			"lut": "com.nexstreaming.kmsdk.design.nexeditor.template.funkymove.lut.lut_C27",
			"color_filter": "default",
			"brightness": "default",
			"contrast": "default",
			"saturation": "default",
			"speed_control": "100",
			"crop_mode": "fill",
			"apply_effect_on_res": "0",
			"audio_res": "none",

			"transition_name": "com.nexstreaming.kmsdk.design.nexeditor.transition.funkymove.16v9.tran_4",
			"transition_duration": "2500",

			"identifier" : "loop.scene.id.2"
		},
		{
			"type": "scene",
			"source_type": "res_default",
			"duration": "5500",
			"duration_min": "5500",
			"duration_max": "6000",
			"volume": "0",
			"effects": "com.nexstreaming.kmsdk.design.nexeditor.effect.funkymove.16v9.fx_1_triangle",
			"lut": "com.nexstreaming.kmsdk.design.nexeditor.template.funkymove.lut.lut_C27",
			"color_filter": "default",
			"brightness": "default",
			"contrast": "default",
			"saturation": "default",
			"speed_control": "100",
			"crop_mode": "fill",
			"apply_effect_on_res": "0",
			"audio_res": "none",

			"transition_name": "com.nexstreaming.kmsdk.design.nexeditor.transition.funkymove.16v9.tran_1",
			"transition_duration": "800",

			"identifier" : "loop.scene.id.1"
		},
		{
			"type": "scene",
			"source_type": "res_default",
			"duration": "2000",
			"duration_min": "2000",
			"duration_max": "2500",
			"volume": "0",
			"effects": "com.nexstreaming.kmsdk.design.nexeditor.effect.funkymove.16v9.fx_2",
			"lut": "com.nexstreaming.kmsdk.design.nexeditor.template.funkymove.lut.lut_C27",
			"color_filter": "default",
			"brightness": "default",
			"contrast": "default",
			"saturation": "default",
			"speed_control": "100",
			"crop_mode": "fill",
			"apply_effect_on_res": "0",
			"audio_res": "none",

			"transition_name": "com.nexstreaming.kmsdk.design.nexeditor.transition.funkymove.16v9.tran_2",
			"transition_duration": "2500",

			"identifier" : "loop.scene.id.2"
		}, 
		{
			"type": "scene",
			"source_type": "res_default",
			"duration": "5500",
			"duration_min": "5500",
			"duration_max": "6000",
			"volume": "0",
			"effects": "com.nexstreaming.kmsdk.design.nexeditor.effect.funkymove.16v9.fx_3_triangle",
			"lut": "com.nexstreaming.kmsdk.design.nexeditor.template.funkymove.lut.lut_C27",
			"color_filter": "default",
			"brightness": "default",
			"contrast": "default",
			"saturation": "default",
			"speed_control": "100",
			"crop_mode": "fill",
			"apply_effect_on_res": "0",
			"audio_res": "none",

			"transition_name": "com.nexstreaming.kmsdk.design.nexeditor.transition.funkymove.16v9.tran_3",
			"transition_duration": "800",

			"identifier" : "loop.scene.id.1"
		}, 
		{
			"type": "scene",
			"source_type": "res_default",
			"duration": "2000",
			"duration_min": "2000",
			"duration_max": "2500",
			"volume": "0",
			"effects": "com.nexstreaming.kmsdk.design.nexeditor.effect.funkymove.16v9.fx_4",
			"lut": "com.nexstreaming.kmsdk.design.nexeditor.template.funkymove.lut.lut_C27",
			"color_filter": "default",
			"brightness": "default",
			"contrast": "default",
			"saturation": "default",
			"speed_control": "100",
			"crop_mode": "fill",
			"apply_effect_on_res": "0",
			"audio_res": "none",

			"transition_name": "com.nexstreaming.kmsdk.design.nexeditor.transition.funkymove.16v9.tran_4",
			"transition_duration": "2500",

			"identifier" : "loop.scene.id.2"
		}
	],
	"template_outro": 
	[
		{
			"type" : "scene",
			"source_type": "res_default",
			"duration" : "3750",
			"duration_min" : "3750",
			"duration_max" : "4250",
			"volume" : "0",
			"effects": "com.nexstreaming.kmsdk.design.nexeditor.effect.funkymove.16v9.outro_fx_1",
			"alternative_effect" : {
				"loop.scene.id.1" : "com.nexstreaming.kmsdk.design.nexeditor.effect.funkymove.16v9.outro_fx_2",
				"loop.scene.id.2" : "com.nexstreaming.kmsdk.design.nexeditor.effect.funkymove.16v9.outro_fx_1"		
			},
			"lut": "com.nexstreaming.kmsdk.design.nexeditor.template.funkymove.lut.lut_C27",
			"color_filter" : "default",
			"brightness" : "default",
			"contrast" : "default",
			"saturation" : "default",
			"speed_control" : "100",
			"crop_mode" : "fill",
			"apply_effect_on_res" : "0",
			"audio_res" : "none",

			"transition_name" : "none",
			"transition_duration" : "0"
		}

	]

}