{
    "filename": "2.0_16v9_3dbuilding2_live.json",
    "hidden": "False",
    "icon": "thumbnail.png",
    "id": "com.nexstreaming.kmsdk.design.nexeditor.template.3dbuilding2_live.2.0_16v9_3dbuilding2_live",
    "label": {
        "en": "2.0_16v9_3dbuilding2_live"
    },
    "type": "nex.template"
}