{
    "id": "com.nexstreaming.kmsdk.thenew.nexeditor.collage.treasuremap.v1.0_3v4_2.08_treasuremap.sc.8",
    "type": "nex.dynamiccollage",
    "hidden": "False",
    "filename": "collage.json",
    "icon": "v1.0_3v4_2.08_treasuremap.png",
    "label": {
        "en": "v1.0_3v4_2.08_treasuremap"
    }
}