{
    "collage_name": "v1.0_3v4_2.08_treasuremap",
    "collage_version": "1.0.0",
    "collage_desc": "Collage created by Design Team, NEXSTREAMING",
    "collage_type": "dynamic",
    "collage_duration": "8000",
    "collage_edit_time": "1.00000",
    "collage_ratio": "3v4",
    "collage_dimensions": "none",
    "collage_bgm": "com.nexstreaming.kmsdk.thenew.nexeditor.collage.treasuremap.audio.dcm_treasuremap",
    "collage_bgm_volume": "0.5",
    "collage_project_vol_fade_in_time": "100",
    "collage_project_vol_fade_out_time": "100",
    "effect": "com.nexstreaming.kmsdk.thenew.nexeditor.collage.treasuremap.2.8",
    "collage_source_count": "8",
    "audio_res": "none",
    "audio_res_pos": "0",
    "frame_collage": "0",
    "reserve_field1": "0",
    "reserve_field2": "0",
    "reserve_field3": "0",
    "draw_infos": [
        {
            "draw_id": "draw_0",
            "start": "0",
            "end": "1",
            "draw_width": "960",
            "draw_height": "600",
            "source_type": "user",
            "source_default": "none",
            "lut": "none",
            "audio_res": "none",
            "audio_res_pos": "0",
            "position": "0.53750,0.50625,0.86806,0.48438,0.88750,0.63958,0.55556,0.66250,0.53750,0.50625"
        },
        {
            "draw_id": "draw_1",
            "start": "0",
            "end": "1",
            "draw_width": "960",
            "draw_height": "600",
            "source_type": "user",
            "source_default": "none",
            "lut": "none",
            "audio_res": "none",
            "audio_res_pos": "0",
            "position": "0.57500,0.69583,0.90556,0.71667,0.88889,0.87187,0.55694,0.85104,0.57500,0.69583"
        },
        {
            "draw_id": "draw_2",
            "start": "0",
            "end": "1",
            "draw_width": "960",
            "draw_height": "600",
            "source_type": "user",
            "source_default": "none",
            "lut": "none",
            "audio_res": "none",
            "audio_res_pos": "0",
            "position": "0.56389,0.30833,0.89028,0.26562,0.92778,0.41875,0.60000,0.46146,0.56389,0.30833"
        },
        {
            "draw_id": "draw_3",
            "start": "0",
            "end": "1",
            "draw_width": "960",
            "draw_height": "600",
            "source_type": "user",
            "source_default": "none",
            "lut": "none",
            "audio_res": "none",
            "audio_res_pos": "0",
            "position": "0.60972,0.03333,0.93750,0.07708,0.90139,0.22917,0.57500,0.18646,0.60972,0.03333"
        },
        {
            "draw_id": "draw_4",
            "start": "0",
            "end": "1",
            "draw_width": "960",
            "draw_height": "600",
            "source_type": "user",
            "source_default": "none",
            "lut": "none",
            "audio_res": "none",
            "audio_res_pos": "0",
            "position": "0.17500,0.42500,0.49583,0.48958,0.44167,0.63958,0.12222,0.57500,0.17500,0.42500"
        },
        {
            "draw_id": "draw_5",
            "start": "0",
            "end": "1",
            "draw_width": "960",
            "draw_height": "600",
            "source_type": "user",
            "source_default": "none",
            "lut": "none",
            "audio_res": "none",
            "audio_res_pos": "0",
            "position": "0.13333,0.73333,0.45417,0.66875,0.50694,0.81875,0.18611,0.88333,0.13333,0.73333"
        },
        {
            "draw_id": "draw_6",
            "start": "0",
            "end": "1",
            "draw_width": "960",
            "draw_height": "600",
            "source_type": "user",
            "source_default": "none",
            "lut": "none",
            "audio_res": "none",
            "audio_res_pos": "0",
            "position": "0.07222,0.05208,0.39861,0.00937,0.43472,0.16250,0.10694,0.20521,0.07222,0.05208"
        },
        {
            "draw_id": "draw_7",
            "start": "0",
            "end": "1",
            "draw_width": "960",
            "draw_height": "600",
            "source_type": "user",
            "source_default": "none",
            "lut": "none",
            "audio_res": "none",
            "audio_res_pos": "0",
            "position": "0.17361,0.22292,0.50417,0.24479,0.48611,0.40000,0.15556,0.37917,0.17361,0.22292"
        }
    ],
    "title_infos": [
        {
            "title_id": "text1_uf",
            "start": "0",
            "end": "1",
            "max_length": "13",
            "recommend_length": "13",
            "title_max_lines": "1",
            "title_type": "user",
            "title_default": {
                "en": "Treasure Hunter"
            },
            "draw_id": "none",
            "position": "0.35278,0.89896,0.86528,0.93333,0.85972,0.98021,0.35000,0.94479,0.35278,0.89896"
        }
    ]
}