{
    "label": {
        "en": "kedl"
    },
    "filename": "kedl.xml",
    "type": "nex.kedl",
    "hidden": "True",
    "id": "com.nexstreaming.kmsdk.thenew.nexeditor.collage.journeybeyondtravel.2.7",
    "mergePaths": [
        "common"
    ]
}