{
    "filename": "DCM_MySecretDiary.mp3",
    "type": "nex.audio",
    "id": "com.nexstreaming.kmsdk.design.nexeditor.collage.mysecretdiary.audio.dcm_mysecretdiary",
    "hidden": "True",
    "label": {
        "en": "dcm_mysecretdiary"
    }
}