{
    "filename": "0110_Breeze MST.m4a",
    "hidden": "True",
    "id": "com.nexstreaming.kmsdk.jieun.nexeditor.template.breeze.audio.0110_Breeze MST",
    "label": {
        "en": "0110_Breeze MST"
    },
    "type": "nex.audio"
}