{
  "filename": "kedl.xml",
  "icon": "asset_icon.png",
  "id": "com.nexstreaming.kinemaster.builtin.transition.flip",
  "label": {
    "pt": "Virar 3D",
    "ja": "３Ｄ回転",
    "fr": "Basculement 3D",
    "zh-CN": "3D 旋转",
    "ko-KR": "3D 회전",
    "ar": "عكس ثلاثي الأبعاد",
    "zh-TW": "3D 轉換",
    "en": "3D Flip",
    "zh-HK": "3D 轉換",
    "de-DE": "3D Flip",
    "ru": "3D-вращение",
    "es": "Voltear 3D"
  },
  "type": "nex.kedl",
  "hidden": false
}