{
    "draw_infos": [
        {
            "position": "0.06944,0.10972,0.55694,0.10972,0.55694,0.44583,0.06944,0.44583,0.06944,0.10972",
            "source_type": "user",
            "end": "1",
            "source_default": "none",
            "draw_id": "draw_0",
            "audio_res": "none",
            "audio_res_pos": "0",
            "start": "0",
            "lut": "none"
        },
        {
            "position": "0.58889,0.10972,0.92778,0.10972,0.92778,0.44583,0.58889,0.44583,0.58889,0.10972",
            "source_type": "user",
            "end": "1",
            "source_default": "none",
            "draw_id": "draw_1",
            "audio_res": "none",
            "audio_res_pos": "0",
            "start": "0",
            "lut": "none"
        },
        {
            "position": "0.06667,0.49722,0.34444,0.49722,0.34444,0.77361,0.06667,0.77361,0.06667,0.49722",
            "source_type": "user",
            "end": "1",
            "source_default": "none",
            "draw_id": "draw_2",
            "audio_res": "none",
            "audio_res_pos": "0",
            "start": "0",
            "lut": "none"
        },
        {
            "position": "0.38333,0.49722,0.77778,0.49722,0.77778,0.77361,0.38333,0.77361,0.38333,0.49722",
            "source_type": "user",
            "end": "1",
            "source_default": "none",
            "draw_id": "draw_3",
            "audio_res": "none",
            "audio_res_pos": "0",
            "start": "0",
            "lut": "none"
        }
    ],
    "collage_duration": "8000",
    "audio_res_pos": "0",
    "collage_source_count": "4",
    "collage_dimensions": "none",
    "collage_name": "collage",
    "collage_edit_time": "1",
    "collage_desc": "Collage created by Design Team, NEXSTREAMING",
    "audio_res": "none",
    "collage_bgm_volume": "0.5",
    "collage_project_vol_fade_in_time": "100",
    "collage_type": "dynamic",
    "collage_bgm": "com.nexstreaming.kmsdk.dori.nexeditor.collage.travel note.audio.0084_let's picnic",
    "collage_ratio": "1v1",
    "title_infos": [
        {
            "position": "0.10278,0.85694,0.38194,0.85694,0.38056,0.91528,0.10278,0.91528,0.10278,0.85694",
            "end": "1",
            "title_default": {
                "en": "Travel in Bali"
            },
            "draw_id": "none",
            "title_type": "user",
            "start": "0",
            "title_id": "text1_uf"
        }
    ],
    "collage_project_vol_fade_out_time": "300",
    "collage_version": "1.0.0",
    "effect": "com.nexstreaming.kmsdk.dori.nexeditor.collage.travel_note.4"
}