{
	"template_name":"3dbuilding_live",
	"template_version":"2.0.0",
	"template_desc":"Version : D001 - created by NEXSTREAMING",
	"template_mode":"3dbuilding_live.16v9.3dbuilding_live",
	"template_bgm":"com.nexstreaming.kmsdk.design.nexeditor.template.3dbuilding_live.audio.JSworks_swing_01",
	"template_bgm_volume":"0.5",

	"template_min_duration":"5000",
	"template_default_effect":"outro",
	"template_default_effect_scale":"1",
			"template_default_image_duration":"1000", 

"template_intro":
	[
		{
			"type": "scene",
			"source_type" : "res_default",
			"duration" : "3700",
			"duration_min" :"3700",
			"duration_max": "3700",			
			"volume" : "0",
			"effects" : "com.nexstreaming.kmsdk.design.nexeditor.effect.3dbuilding_live.16v9.building",
			"lut" : "com.nexstreaming.kmsdk.design.nexeditor.template.3dbuilding_live.lut.pastel1",
			"color_filter" : "default",
			"brightness": "default",
			"saturation":"default",
			"speed_control":"default",
			"crop_mode":"fill",
			"apply_effect_on_res":"0",
			"audio_res":"none",
	

			"transition_name" : "none",
			"transition_duration" : "0"					
		}
	],
	"template_loop": 
	[

		{
			"type": "scene",
			"source_type" : "res_default",
			"duration" : "3700",
			"duration_min" :"3700",
			"duration_max": "3700",			
			"volume" : "0",
			"effects" : "com.nexstreaming.kmsdk.design.nexeditor.effect.3dbuilding_live.16v9.building",
			"lut" : "com.nexstreaming.kmsdk.design.nexeditor.template.3dbuilding_live.lut.pastel1",
			"color_filter" : "default",
			"brightness": "default",
			"saturation":"default",
			"speed_control":"default",
			"crop_mode":"fill",
			"apply_effect_on_res":"0",
			"audio_res":"none",
		
			"transition_name" : "none",
			"transition_duration" : "0"				
		}
	],
	"template_outro":
	[
		{
			"type": "scene",
			"source_type" : "res_default",
			"duration" : "3700",
			"duration_min" :"3700",
			"duration_max": "3700",			
			"volume" : "0",
			"effects" : "com.nexstreaming.kmsdk.design.nexeditor.effect.3dbuilding_live.16v9.building",
			"lut" : "com.nexstreaming.kmsdk.design.nexeditor.template.3dbuilding_live.lut.pastel1",
			"color_filter" : "default",
			"brightness": "default",
			"saturation":"default",
			"speed_control":"default",
			"crop_mode":"fill",
			"apply_effect_on_res":"0",
			"audio_res":"none",
			

			"transition_name" : "none",
			"transition_duration" : "0"
		}
	]
}