{
	"template_name":"thewhiteview",
	"template_version":"2.0.0",
	"template_desc":"Version : D001 - Template Created by Jiyeon, NEXSTREAMING",
	"template_mode":"2v1",
	"template_bgm":"com.nexstreaming.kmsdk.jiyeon.nexeditor.template.thewhiteview.audio.thewhiteview_bgm",
	"template_bgm_volume":"0.5",

	"template_min_duration":"8000",
	"template_default_effect":"outro",
	"template_default_effect_scale":"1",
    "template_default_image_duration":"1000",


	"template_intro":
	[
		{
			"type": "scene",
			"source_type" : "res_default",
			"duration" : "2220",
			"duration_min" :"2220",
			"duration_max": "2220",
			"volume" : "0",
			"effects" : "com.nexstreaming.kmsdk.jiyeon.nexeditor.effect.thewhiteview.16v9.op_01",
			"lut":"none",
			"color_filter" : "default",
			"brightness": "default",
			"contrast":"default",
			"saturation":"default",
			"speed_control":"100",
			"crop_mode":"fill",
			"apply_effect_on_res":"0",
			"audio_res":"none",

			"transition_name" : "none",
			"transition_duration" : "0"
		},
		{
			"type": "scene",
			"source_type" : "res_default",
			"duration" : "1880",
			"duration_min" :"1880",
			"duration_max": "1800",
			"volume" : "0",
			"effects" : "com.nexstreaming.kmsdk.jiyeon.nexeditor.effect.thewhiteview.16v9.op_02",
			"lut":"none",
			"color_filter" : "default",
			"brightness": "default",
			"contrast":"default",
			"saturation":"default",
			"speed_control":"100",
			"crop_mode":"fill",
			"image_crop_mode":"fill",
			"apply_effect_on_res":"0",
			"audio_res":"none",

			"transition_name" : "none",
			"transition_duration" : "0"
		},
		{
			"type": "scene",
			"source_type" : "res_default",
			"duration" : "3063",
			"duration_min" :"3063",
			"duration_max": "3063",
			"volume" : "0",
			"effects" : "com.nexstreaming.kmsdk.jiyeon.nexeditor.effect.thewhiteview.16v9.op_01",
			"lut":"none",
			"color_filter" : "default",
			"brightness": "default",
			"contrast":"default",
			"saturation":"default",
			"speed_control":"100",
			"crop_mode":"fill",
			"image_crop_mode":"fill",
			"apply_effect_on_res":"0",
			"audio_res":"none",

			"transition_name" : "com.nexstreaming.kmsdk.jiyeon.nexeditor.transition.thewhiteview.16v9.op_trans",
			"transition_duration" : "1000"
		},
		{
			"type": "scene",
			"source_type" : "res_default",
			"duration" : "1240",
			"duration_min" :"1240",
			"duration_max": "1240",
			"volume" : "0",
			"effects" : "com.nexstreaming.kmsdk.jiyeon.nexeditor.effect.thewhiteview.16v9.op_02",
			"lut":"none",
			"color_filter" : "default",
			"brightness": "default",
			"contrast":"default",
			"saturation":"default",
			"speed_control":"100",
			"crop_mode":"fill",
			"image_crop_mode":"fill",
			"apply_effect_on_res":"0",
			"audio_res":"none",

			"transition_name" : "none",
			"transition_duration" : "0"
		},
		{
			"type": "scene",
			"source_type" : "res_default",
			"duration" : "1500",
			"duration_min" :"1500",
			"duration_max": "1500",
			"volume" : "0",
			"effects" : "com.nexstreaming.kmsdk.jiyeon.nexeditor.effect.thewhiteview.16v9.op_03",
			"lut":"none",
			"color_filter" : "default",
			"brightness": "default",
			"contrast":"default",
			"saturation":"default",
			"speed_control":"100",
			"crop_mode":"fill",
			"image_crop_mode":"fill",
			"apply_effect_on_res":"0",
			"audio_res":"none",

			"transition_name" : "none",
			"transition_duration" : "0"
		},
		{
			"type": "scene",
			"source_type" : "res_default",
			"duration" : "1900",
			"duration_min" :"1900",
			"duration_max": "1900",
			"volume" : "0",
			"effects" : "com.nexstreaming.kmsdk.jiyeon.nexeditor.effect.thewhiteview.16v9.op_04",
			"lut":"none",
			"color_filter" : "default",
			"brightness": "default",
			"contrast":"default",
			"saturation":"default",
			"speed_control":"100",
			"crop_mode":"fill",
			"image_crop_mode":"fill",
			"apply_effect_on_res":"0",
			"audio_res":"none",

			"transition_name" : "none",
			"transition_duration" : "0"
		}
		
	],
	"template_loop":  
	[
		{
			"type": "scene",
			"source_type" : "res_default",
			"duration" : "2220",
			"duration_min" :"2220",
			"duration_max": "2220",
			"volume" : "0",
			"effects" : "com.nexstreaming.kmsdk.jiyeon.nexeditor.effect.thewhiteview.16v9.fx_01",
			"lut":"none",
			"color_filter" : "default",
			"brightness": "default",
			"contrast":"default",
			"saturation":"default",
			"speed_control":"100",
			"crop_mode":"fill",
			"image_crop_mode":"fill",
			"apply_effect_on_res":"0",
			"audio_res":"none",

			"transition_name" : "com.nexstreaming.kmsdk.jiyeon.nexeditor.transition.thewhiteview.16v9.trans_01",
			"transition_duration" : "1800"
		},
		{
			"type": "scene",
			"source_type" : "res_default",
			"duration" : "2270",
			"duration_min" :"2270",
			"duration_max": "2270",
			"volume" : "0",
			"effects" : "com.nexstreaming.kmsdk.jiyeon.nexeditor.effect.thewhiteview.16v9.fx_02",
			"lut":"none",
			"color_filter" : "default",
			"brightness": "default",
			"contrast":"default",
			"saturation":"default",
			"speed_control":"100",
			"crop_mode":"fill",
			"image_crop_mode":"fill",
			"apply_effect_on_res":"0",
			"audio_res":"none",

			"transition_name" : "none",
			"transition_duration" : "0"
		},
		{
			"type": "scene",
			"source_type" : "res_default",
			"duration" : "2900",
			"duration_min" :"2900",
			"duration_max": "2900",
			"volume" : "0",
			"effects" : "com.nexstreaming.kmsdk.jiyeon.nexeditor.effect.thewhiteview.16v9.fx_03",
			"lut":"none",
			"color_filter" : "default",
			"brightness": "default",
			"contrast":"default",
			"saturation":"default",
			"speed_control":"100",
			"crop_mode":"fill",
			"image_crop_mode":"fill",
			"apply_effect_on_res":"0",
			"audio_res":"none",

			"transition_name" : "com.nexstreaming.kmsdk.jiyeon.nexeditor.transition.thewhiteview.16v9.trans_02",
			"transition_duration" : "1230"
		},
		{
			"type": "scene",
			"source_type" : "res_default",
			"duration" : "5150",
			"duration_min" :"5150",
			"duration_max": "5150",
			"volume" : "0",
			"effects" : "com.nexstreaming.kmsdk.jiyeon.nexeditor.effect.thewhiteview.16v9.fx_04",
			"lut":"none",
			"color_filter" : "default",
			"brightness": "default",
			"contrast":"default",
			"saturation":"default",
			"speed_control":"100",
			"crop_mode":"fill",
			"image_crop_mode":"fill",
			"apply_effect_on_res":"0",
			"audio_res":"none",

			"transition_name" : "none",
			"transition_duration" : "0"
		},
		{
			"type": "scene",
			"source_type" : "res_default",
			"duration" : "3960",
			"duration_min" :"3960",
			"duration_max": "3960",
			"volume" : "0",
			"effects" : "com.nexstreaming.kmsdk.jiyeon.nexeditor.effect.thewhiteview.16v9.fx_05",
			"lut":"none",
			"color_filter" : "default",
			"brightness": "default",
			"contrast":"default",
			"saturation":"default",
			"speed_control":"100",
			"crop_mode":"fill",
			"image_crop_mode":"fill",
			"apply_effect_on_res":"0",
			"audio_res":"none",

			"transition_name" : "none",
			"transition_duration" : "0"
		},
		{
			"type": "scene",
			"source_type" : "res_default",
			"duration" : "3470",
			"duration_min" :"3470",
			"duration_max": "3470",
			"volume" : "0",
			"effects" : "com.nexstreaming.kmsdk.jiyeon.nexeditor.effect.thewhiteview.16v9.fx_06",
			"lut":"none",
			"color_filter" : "default",
			"brightness": "default",
			"contrast":"default",
			"saturation":"default",
			"speed_control":"100",
			"crop_mode":"fill",
			"image_crop_mode":"fill",
			"apply_effect_on_res":"0",
			"audio_res":"none",

			"transition_name" : "none",
			"transition_duration" : "0"
		},
		{
			"type": "scene",
			"source_type" : "res_default",
			"duration" : "2735",
			"duration_min" :"2735",
			"duration_max": "2735",
			"volume" : "0",
			"effects" : "com.nexstreaming.kmsdk.jiyeon.nexeditor.effect.thewhiteview.16v9.fx_07",
			"lut":"none",
			"color_filter" : "default",
			"brightness": "default",
			"contrast":"default",
			"saturation":"default",
			"speed_control":"100",
			"crop_mode":"fill",
			"image_crop_mode":"fill",
			"apply_effect_on_res":"0",
			"audio_res":"none",

			"transition_name" : "com.nexstreaming.kmsdk.jiyeon.nexeditor.transition.thewhiteview.16v9.trans_03",
			"transition_duration" : "1230"
		},
		{
			"type": "scene",
			"source_type" : "res_default",
			"duration" : "3800",
			"duration_min" :"3800",
			"duration_max": "3800",
			"volume" : "0",
			"effects" : "com.nexstreaming.kmsdk.jiyeon.nexeditor.effect.thewhiteview.16v9.fx_08",
			"lut":"none",
			"color_filter" : "default",
			"brightness": "default",
			"contrast":"default",
			"saturation":"default",
			"speed_control":"100",
			"crop_mode":"fill",
			"image_crop_mode":"fill",
			"apply_effect_on_res":"0",
			"audio_res":"none",

			"transition_name" : "com.nexstreaming.kmsdk.jiyeon.nexeditor.transition.thewhiteview.16v9.trans_04",
			"transition_duration" : "1230"
		},
        {
			"type": "scene",
			"source_type" : "res_default",
			"duration" : "3950",
			"duration_min" :"3950",
			"duration_max": "3950",
			"volume" : "0",
			"effects" : "com.nexstreaming.kmsdk.jiyeon.nexeditor.effect.thewhiteview.16v9.fx_09",
			"lut":"none",
			"color_filter" : "default",
			"brightness": "default",
			"contrast":"default",
			"saturation":"default",
			"speed_control":"100",
			"crop_mode":"fill",
			"image_crop_mode":"fill",
			"apply_effect_on_res":"0",
			"audio_res":"none",

			"transition_name" : "com.nexstreaming.kmsdk.jiyeon.nexeditor.transition.thewhiteview.16v9.trans_05",
			"transition_duration" : "2460"
		},
		{
			"type": "scene",
			"source_type" : "res_default",
			"duration" : "3950",
			"duration_min" :"3950",
			"duration_max": "3950",
			"volume" : "0",
			"effects" : "com.nexstreaming.kmsdk.jiyeon.nexeditor.effect.thewhiteview.16v9.fx_10",
			"lut":"none",
			"color_filter" : "default",
			"brightness": "default",
			"contrast":"default",
			"saturation":"default",
			"speed_control":"100",
			"crop_mode":"fill",
			"image_crop_mode":"fill",
			"apply_effect_on_res":"0",
			"audio_res":"none",

			"transition_name" : "com.nexstreaming.kmsdk.jiyeon.nexeditor.transition.thewhiteview.16v9.trans_06",
			"transition_duration" : "1230"
		},
		{
			"type": "scene",
			"source_type" : "res_default",
			"duration" : "2270",
			"duration_min" :"2270",
			"duration_max": "2270",
			"volume" : "0",
			"effects" : "com.nexstreaming.kmsdk.jiyeon.nexeditor.effect.thewhiteview.16v9.fx_02",
			"lut":"none",
			"color_filter" : "default",
			"brightness": "default",
			"contrast":"default",
			"saturation":"default",
			"speed_control":"100",
			"crop_mode":"fill",
			"image_crop_mode":"fill",
			"apply_effect_on_res":"0",
			"audio_res":"none",

			"transition_name" : "none",
			"transition_duration" : "0"
		},
		{
			"type": "scene",
			"source_type" : "res_default",
			"duration" : "2290",
			"duration_min" :"2290",
			"duration_max": "2290",
			"volume" : "0",
			"effects" : "com.nexstreaming.kmsdk.jiyeon.nexeditor.effect.thewhiteview.16v9.fx_11",
			"lut":"none",
			"color_filter" : "default",
			"brightness": "default",
			"contrast":"default",
			"saturation":"default",
			"speed_control":"100",
			"crop_mode":"fill",
			"image_crop_mode":"fill",
			"apply_effect_on_res":"0",
			"audio_res":"none",

			"transition_name" : "com.nexstreaming.kmsdk.jiyeon.nexeditor.transition.thewhiteview.16v9.trans_07",
			"transition_duration" : "1800"
		},
		{
			"type": "scene",
			"source_type" : "res_default",
			"duration" : "2270",
			"duration_min" :"2270",
			"duration_max": "2270",
			"volume" : "0",
			"effects" : "com.nexstreaming.kmsdk.jiyeon.nexeditor.effect.thewhiteview.16v9.fx_09",
			"lut":"none",
			"color_filter" : "default",
			"brightness": "default",
			"contrast":"default",
			"saturation":"default",
			"speed_control":"100",
			"crop_mode":"fill",
			"image_crop_mode":"fill",
			"apply_effect_on_res":"0",
			"audio_res":"none",

			"transition_name" : "none",
			"transition_duration" : "0"
		},
		{
			"type": "scene",
			"source_type" : "res_default",
			"duration" : "1070",
			"duration_min" :"1070",
			"duration_max": "1070",
			"volume" : "0",
			"effects" : "com.nexstreaming.kmsdk.jiyeon.nexeditor.effect.thewhiteview.16v9.fx_08",
			"lut":"none",
			"color_filter" : "default",
			"brightness": "default",
			"contrast":"default",
			"saturation":"default",
			"speed_control":"100",
			"crop_mode":"fill",
			"image_crop_mode":"fill",
			"apply_effect_on_res":"0",
			"audio_res":"none",

			"transition_name" : "com.nexstreaming.kmsdk.jiyeon.nexeditor.transition.thewhiteview.16v9.trans_04",
			"transition_duration" : "1230"
		},
        {
			"type": "scene",
			"source_type" : "res_default",
			"duration" : "3950",
			"duration_min" :"3950",
			"duration_max": "3950",
			"volume" : "0",
			"effects" : "com.nexstreaming.kmsdk.jiyeon.nexeditor.effect.thewhiteview.16v9.fx_10",
			"lut":"none",
			"color_filter" : "default",
			"brightness": "default",
			"contrast":"default",
			"saturation":"default",
			"speed_control":"100",
			"crop_mode":"fill",
			"image_crop_mode":"fill",
			"apply_effect_on_res":"0",
			"audio_res":"none",

			"transition_name" : "com.nexstreaming.kmsdk.jiyeon.nexeditor.transition.thewhiteview.16v9.trans_05",
			"transition_duration" : "2460"
		},
		{
			"type": "scene",
			"source_type" : "res_default",
			"duration" : "3950",
			"duration_min" :"3950",
			"duration_max": "3950",
			"volume" : "0",
			"effects" : "com.nexstreaming.kmsdk.jiyeon.nexeditor.effect.thewhiteview.16v9.fx_09",
			"lut":"none",
			"color_filter" : "default",
			"brightness": "default",
			"contrast":"default",
			"saturation":"default",
			"speed_control":"100",
			"crop_mode":"fill",
			"image_crop_mode":"fill",
			"apply_effect_on_res":"0",
			"audio_res":"none",

			"transition_name" : "com.nexstreaming.kmsdk.jiyeon.nexeditor.transition.thewhiteview.16v9.trans_06",
			"transition_duration" : "1230"
		},
		{
			"type": "scene",
			"source_type" : "res_default",
			"duration" : "3950",
			"duration_min" :"3950",
			"duration_max": "3950",
			"volume" : "0",
			"effects" : "com.nexstreaming.kmsdk.jiyeon.nexeditor.effect.thewhiteview.16v9.fx_07",
			"lut":"none",
			"color_filter" : "default",
			"brightness": "default",
			"contrast":"default",
			"saturation":"default",
			"speed_control":"100",
			"crop_mode":"fill",
			"image_crop_mode":"fill",
			"apply_effect_on_res":"0",
			"audio_res":"none",

			"transition_name" : "com.nexstreaming.kmsdk.jiyeon.nexeditor.transition.thewhiteview.16v9.trans_08",
			"transition_duration" : "1230"
		},
		{
			"type": "scene",
			"source_type" : "res_default",
			"duration" : "3830",
			"duration_min" :"3830",
			"duration_max": "3830",
			"volume" : "0",
			"effects" : "com.nexstreaming.kmsdk.jiyeon.nexeditor.effect.thewhiteview.16v9.fx_10",
			"lut":"none",
			"color_filter" : "default",
			"brightness": "default",
			"contrast":"default",
			"saturation":"default",
			"speed_control":"100",
			"crop_mode":"fill",
			"image_crop_mode":"fill",
			"apply_effect_on_res":"0",
			"audio_res":"none",

			"transition_name" : "com.nexstreaming.kmsdk.jiyeon.nexeditor.transition.thewhiteview.16v9.trans_02",
			"transition_duration" : "1230"
		},
        {
			"type": "scene",
			"source_type" : "res_default",
			"duration" : "4100",
			"duration_min" :"4100",
			"duration_max": "4100",
			"volume" : "0",
			"effects" : "com.nexstreaming.kmsdk.jiyeon.nexeditor.effect.thewhiteview.16v9.fx_08",
			"lut":"none",
			"color_filter" : "default",
			"brightness": "default",
			"contrast":"default",
			"saturation":"default",
			"speed_control":"100",
			"crop_mode":"fill",
			"image_crop_mode":"fill",
			"apply_effect_on_res":"0",
			"audio_res":"none",

			"transition_name" : "com.nexstreaming.kmsdk.jiyeon.nexeditor.transition.thewhiteview.16v9.trans_03",
			"transition_duration" : "1230"
		},
		{
			"type": "scene",
			"source_type" : "res_default",
			"duration" : "3900",
			"duration_min" :"3900",
			"duration_max": "3900",
			"volume" : "0",
			"effects" : "com.nexstreaming.kmsdk.jiyeon.nexeditor.effect.thewhiteview.16v9.fx_09",
			"lut":"none",
			"color_filter" : "default",
			"brightness": "default",
			"contrast":"default",
			"saturation":"default",
			"speed_control":"100",
			"crop_mode":"fill",
			"image_crop_mode":"fill",
			"apply_effect_on_res":"0",
			"audio_res":"none",

			"transition_name" : "none",
			"transition_duration" : "0"
		}
	
	],
	"template_outro":
	[
		{
			"type": "scene",
			"source_type" : "res_default",
			"duration" : "5000",
			"duration_min" :"5000",
			"duration_max": "5000",
			"volume" : "0",
			"effects" : "com.nexstreaming.kmsdk.jiyeon.nexeditor.effect.thewhiteview.16v9.out_01",
			"lut":"none",
			"color_filter" : "default",
			"brightness": "default",
			"contrast":"default",
			"saturation":"default",
			"speed_control":"100",
			"crop_mode":"default",
			"image_crop_mode":"fill",
			"apply_effect_on_res":"0",
			"audio_res":"none",

			"transition_name" : "none",
			"transition_duration" : "0"
		}
	]     
}