{
    "collage_name": "v1.0 _3v4_4_mysecretdiary",
    "collage_version": "1.0.0",
    "collage_desc": "Collage created by Design Team, NEXSTREAMING",
    "collage_type": "dynamic",
    "collage_duration": "8000",
    "collage_edit_time": "1.00000",
    "collage_ratio": "3v4",
    "collage_dimensions": "none",
    "collage_bgm": "com.nexstreaming.kmsdk.design.nexeditor.collage.mysecretdiary.audio.dcm_mysecretdiary",
    "collage_bgm_volume": "0.5",
    "collage_project_vol_fade_in_time": "100",
    "collage_project_vol_fade_out_time": "100",
    "effect": "com.nexstreaming.kmsdk.design.nexeditor.collage.mysecretdiary.4",
    "collage_source_count": "4",
    "audio_res": "none",
    "audio_res_pos": "0",
    "frame_collage": "0",
    "reserve_field1": "0",
    "reserve_field2": "0",
    "reserve_field3": "0",
    "draw_infos": [
        {
            "draw_id": "draw_0",
            "start": "0",
            "end": "1",
            "draw_width": "0",
            "draw_height": "0",
            "source_type": "user",
            "source_default": "none",
            "lut": "com.nexstreaming.kmsdk.design.nexeditor.collage.mysecretdiary.lut.lut_msd",
            "audio_res": "none",
            "audio_res_pos": "0",
            "position": "0.08750,0.35208,0.47778,0.35729,0.47083,0.65000,0.08056,0.64479,0.08750,0.35208"
        },
        {
            "draw_id": "draw_1",
            "start": "0",
            "end": "1",
            "draw_width": "0",
            "draw_height": "0",
            "source_type": "user",
            "source_default": "none",
            "lut": "com.nexstreaming.kmsdk.design.nexeditor.collage.mysecretdiary.lut.lut_msd",
            "audio_res": "none",
            "audio_res_pos": "0",
            "position": "0.07500,0.66146,0.59444,0.66146,0.59444,0.95312,0.07500,0.95312,0.07500,0.66146"
        },
        {
            "draw_id": "draw_2",
            "start": "0",
            "end": "1",
            "draw_width": "0",
            "draw_height": "0",
            "source_type": "user",
            "source_default": "none",
            "lut": "com.nexstreaming.kmsdk.design.nexeditor.collage.mysecretdiary.lut.lut_msd",
            "audio_res": "none",
            "audio_res_pos": "0",
            "position": "0.39306,0.05104,0.91389,0.05104,0.91389,0.34375,0.39306,0.34375,0.39306,0.05104"
        },
        {
            "draw_id": "draw_3",
            "start": "0",
            "end": "1",
            "draw_width": "0",
            "draw_height": "0",
            "source_type": "user",
            "source_default": "none",
            "lut": "com.nexstreaming.kmsdk.design.nexeditor.collage.mysecretdiary.lut.lut_msd",
            "audio_res": "none",
            "audio_res_pos": "0",
            "position": "0.08611,0.05000,0.38056,0.05000,0.38056,0.34375,0.08611,0.34375,0.08611,0.05000"
        }
    ]
}