{
    "type": "nex.kedl",
    "id": "com.nexstreaming.kmsdk.thenew.nexeditor.collage.treasuremap.2.3",
    "mergePaths": [
        "common"
    ],
    "hidden": "True",
    "filename": "kedl.xml",
    "label": {
        "en": "kedl"
    }
}