{
    "filename": "kedl.xml",
    "hidden": "True",
    "id": "com.nexstreaming.kmsdk.design.nexeditor.effect.epicopener.1v1.loop_light",
    "label": {
        "en": "com.nexstreaming.kmsdk.design.nexeditor.effect.epicopener.1v1.loop_light"
    },
    "mergePaths": [
        "1v1"
    ],
    "type": "nex.kedl"
}