{
    "filename": "kedl.xml",
    "hidden": "True",
    "id": "com.nexstreaming.kmsdk.jiyeon.nexeditor.transition.thewhiteview.1v1.trans_08",
    "label": {
        "en": "com.nexstreaming.kmsdk.jiyeon.nexeditor.transition.thewhiteview.1v1.trans_08"
    },
    "mergePaths": [
        "common"
    ],
    "type": "nex.kedl"
}