{
	"template_name":"90shomevideo",
	"template_version":"2.0.0",
	"template_desc":"Version : D002 - Template Created by Design Team, NEXSTREAMING",
	"template_mode":"9v16",
	"template_bgm":"com.nexstreaming.kmsdk.brix.nexeditor.template.90shomevideo.audio.RosyGirlMST2",
	"template_bgm_volume":"0.5",

	"template_min_duration":"16000",
	"template_default_effect":"outro",
	"template_default_effect_scale":"1",


	"template_intro":
	[
		{
			"type": "scene",
			"source_type" : "res_default",
			"duration" : "4000",
			"duration_min" :"4000",
			"duration_max": "4000",
			"volume" : "0",
			"effects" : "com.nexstreaming.kmsdk.brix.nexeditor.effect.90shomevideo.1v2.intro",
			"lut" : "com.nexstreaming.kmsdk.brix.nexeditor.template.90shomevideo.lut.lut_camvideo",
			"color_filter" : "default",
			"brightness": "default",
			"contrast":"default",
			"saturation":"default",
			"speed_control":"100",
			"crop_mode":"pan_rand",
			"image_crop_mode":"pan_rand",
			"apply_effect_on_res":"0",
			"audio_res":"none",
 
			"transition_name" : "none",
			"transition_duration" : "0"
		}
	],
	"template_loop":  
	[
		{
			"type": "scene",
			"source_type" : "res_default",
			"duration" : "4000",
			"duration_min" :"4000",
			"duration_max": "4000",
			"volume" : "0",
			"effects" : "com.nexstreaming.kmsdk.brix.nexeditor.effect.90shomevideo.1v2.clip01",
			"lut":"com.nexstreaming.kmsdk.brix.nexeditor.template.90shomevideo.lut.lut_camvideo",
			"color_filter" : "default",
			"brightness": "default",
			"contrast":"default",
			"saturation":"default",
			"speed_control":"100",
			"crop_mode":"default",
			"image_crop_mode":"pan_rand",
			"apply_effect_on_res":"0",
			"audio_res":"none",

			"transition_name" : "none",
			"transition_duration" : "0"
		},
		{
			"type": "scene",
			"source_type" : "res_default",
			"duration" : "4000",
			"duration_min" :"4000",
			"duration_max": "4000",
			"volume" : "0",
			"effects" : "com.nexstreaming.kmsdk.brix.nexeditor.effect.90shomevideo.1v2.clip02",
			"lut": "com.nexstreaming.kmsdk.brix.nexeditor.template.90shomevideo.lut.lut_camvideo",
			"color_filter" : "default",
			"brightness": "default",
			"contrast":"default",
			"saturation":"default",
			"speed_control":"100",
			"crop_mode":"default",
			"image_crop_mode":"pan_rand",
			"apply_effect_on_res":"0",
			"audio_res":"none",

			"transition_name" : "none",
			"transition_duration" : "0"
		},
		{
			"type": "scene",
			"source_type" : "res_default",
			"duration" : "3500",
			"duration_min" :"3500",
			"duration_max": "3500",
			"volume" : "0",
			"effects" : "com.nexstreaming.kmsdk.brix.nexeditor.effect.90shomevideo.1v2.clip03",
			"lut":"com.nexstreaming.kmsdk.brix.nexeditor.template.90shomevideo.lut.lut_camvideo",
			"color_filter" : "default",
			"brightness": "default",
			"contrast":"default",
			"saturation":"default",
			"speed_control":"100",
			"crop_mode":"default",
			"image_crop_mode":"pan_rand",
			"apply_effect_on_res":"0",
			"audio_res":"none",

			"transition_name" : "none",
			"transition_duration" : "0"
		}
	
	],
	"template_outro":
	[		
		{
			"type": "scene",
			"source_type" : "res_default",
			"res_path" : "#ffffff",
			"duration" : "6000",
			"duration_min" :"6000",
			"duration_max": "6000",
			"volume" : "0",
			"effects" : "com.nexstreaming.kmsdk.brix.nexeditor.effect.90shomevideo.1v2.outro",
			"lut":"com.nexstreaming.kmsdk.brix.nexeditor.template.90shomevideo.lut.lut_camvideo",
			"color_filter" : "default",
			"brightness": "default",
			"contrast":"default",
			"saturation":"default",
			"speed_control":"100",
			"crop_mode":"pan_rand",
			"image_crop_mode":"pan_rand",
			"apply_effect_on_res":"0",
			"audio_res":"none",

			"transition_name" : "none",
			"transition_duration" : "0"
		}
	],
	"template_single":
	[
		{
			"type": "scene",
			"source_type" : "res_default",
			"duration" : "4000",
			"duration_min" :"4000",
			"duration_max": "4000",
			"volume" : "0",
			"effects" : "com.nexstreaming.kmsdk.brix.nexeditor.effect.90shomevideo.1v2.single",
			"lut":"com.nexstreaming.kmsdk.brix.nexeditor.template.90shomevideo.lut.lut_camvideo",
			"color_filter" : "default",
			"brightness": "default",
			"contrast":"default",
			"saturation":"default",
			"speed_control":"100",
			"crop_mode":"default",
			"image_crop_mode":"fill",
			"apply_effect_on_res":"1",
			"audio_res":"none",

			"transition_name" : "none",
			"transition_duration" : "0"
		}
	]           
}