{
    "filename": "epicopener.mp3",
    "hidden": "True",
    "id": "com.nexstreaming.kmsdk.design.nexeditor.template.epicopener.audio.epicopener",
    "label": {
        "en": "epicopener"
    },
    "type": "nex.audio"
}