{
    "label": {
        "en": "kedl"
    },
    "filename": "kedl.xml",
    "mergePaths": [
        "common"
    ],
    "id": "com.nexstreaming.kmsdk.thenew.nexeditor.collage.cutandslide.2.5",
    "hidden": "True",
    "type": "nex.kedl"
}